10010000000000000000001            20181130104414TBS                                                                                                                
200PA3201811304050910372               THB00000000000391400000034050910372                                                                                                                                        
3000000014680400909               0000000000012050THBYNYS    010000000000000950000000000000000000000000000000000000000140000                                   NYY                    1001  OUR                                                                                                                                                                                                                                                               
301000001123456789012345Mr. Automate Comarch Test                                                                                                                   '20180924140530'                                                                                                                                                                                                                                                                                                                                                             0896680770                                   test123@scb.co.th                                                                                                                                                                                                                                                                                                                                                                                                                                                                                                                                                                                                                                                         
400000001011234567890123  On Behalf of Company Name (TH or Eng)                                                                                                                                                                                                                                                                                                                         04                            00000000000009502                                        20181130B
4010000010100000000000009501                                                                                    010000000000001000
3000000024680400909               0000000000013050THBYNYS    010000000000000950000000000000000000000000000000000000000140000                                   NYY                    1001  OUR                                                                                                                                                                                                                                                               
301000002123456789012345Mr. Automate Comarch Test                                                                                                                   '20180924140530'                                                                                                                                                                                                                                                                                                                                                             0896680770                                   test123@scb.co.th                                                                                                                                                                                                                                                                                                                                                                                                                                                                                                                                                                                                                                                         
400000002011234567890123  On Behalf of Company Name (TH or Eng)                                                                                                                                                                                                                                                                                                                         04                            00000000000009502                                        20181130B
4010000020100000000000009501                                                                                    010000000000001000
3000000035602514015               0000000000014040THBYNYS    010000000000000950000000000000000000000000000000000000000140000                                   NYY                    1001  OUR                                                                                                                                                                                                                                                               
301000003123456789012345Mr. Automate Comarch Test                                                                                                                   '20180924140530'                                                                                                                                                                                                                                                                                                                                                             0896680770                                   test123@scb.co.th                                                                                                                                                                                                                                                                                                                                                                                                                                                                                                                                                                                                                                                         
400000003011234567890123  On Behalf of Company Name (TH or Eng)                                                                                                                                                                                                                                                                                                                         04                            00000000000009502                                        20181130B
4010000030100000000000009501                                                                                    010000000000001000
9990000010000030000000000039140
