1001                               20180906140444TBS                                                                                                                
2003PT201809064050910372               THB00000000000391400000034050910372                                                                                                                                        
3000000014680400909               0000000000012050THBYNYS    010000000000000950000000000000000000000000000000000000000140014                                   NNY                        59OUR                                                                                                                                                                                                                                                               
3010000011234561234512  นาย ทดสอบโคมาร์ช ทดสอบออโตเมท ผู้รับเงิน                                                                                                    //////'20180905165000'                                                                                                                                                                                                                                                                                                                                                                                                    test123@scb.co.th                                                                                                                                                                                                                                                                                                                                                                                                                                                                                                                                                                                                                                                         
400000001011234561234512  On Behalf of Company Name (TH or Eng)                                                                                                       WHT On behalf of Beneficiary Address1                                 WHT On behalf of Beneficiary Address2                                 WHT On behalf of Beneficiary Address3                                 03              0000000000000000000000000009503                                        20180906B
4010000010100000000000009503                                                                                    050000000000001000
3000000024680400909               0000000000013050THBYNYS    010000000000000950000000000000000000000000000000000000000140014                                   NNY                        59OUR                                                                                                                                                                                                                                                               
3010000021234561234512  นาย ทดสอบโคมาร์ช ทดสอบออโตเมท ผู้รับเงิน                                                                                                    //////'20180905165000'                                                                                                                                                                                                                                                                                                                                                                                                    test123@scb.co.th                                                                                                                                                                                                                                                                                                                                                                                                                                                                                                                                                                                                                                                         
400000002011234561234512  On Behalf of Company Name (TH or Eng)                                                                                                       WHT On behalf of Beneficiary Address1                                 WHT On behalf of Beneficiary Address2                                 WHT On behalf of Beneficiary Address3                                 12              0000000000000000000000000009504Remark                                  20180906B
4010000020100000000000009504a                                                                                   050000000000001000
3000000035602514015               0000000000014040THBYNYS    010000000000000950000000000000000000000000000000000000000140014                                   NNY                        59OUR                                                                                                                                                                                                                                                               
3010000031234561234512  นาย ทดสอบโคมาร์ช ทดสอบออโตเมท ผู้รับเงิน                                                                                                    //////'20180905165000'                                                                                                                                                                                                                                                                                                                                                                                                    test123@scb.co.th                                                                                                                                                                                                                                                                                                                                                                                                                                                                                                                                                                                                                                                         
400000003011234561234512  On Behalf of Company Name (TH or Eng)                                                                                                       WHT On behalf of Beneficiary Address1                                 WHT On behalf of Beneficiary Address2                                 WHT On behalf of Beneficiary Address3                                 04              0000000000000000000000000009501                                        20180906B
4010000030100000000000009504b1.1                                                                                050000000000001000
9990000010000030000000000039140
