'**********************************************************************************************************************************
'*  Function Name : WB_LaunchBrowser()
'*  Purpose:        Launch Web Browser
'*  Arguments:      strValueToEnter
'* 	Return Value:   Flag 1 or -1 
'* 	Author By		ANUPOL H. (AMS-GABLE)
'**********************************************************************************************************************************
Function WB_LaunchBrowser(strValueToEnter,ExpectedResult)
	On Error Resume Next
  	Const sModule = "WB_LaunchBrowser"
  	Activity="Launch Web Browser"
  	call logging("sModule " & sMODULE,c_DEBUG,3)
  	 
	If len(strValueToEnter) > 0 Then
		
		BrowserType = Environment("DefaultBrowser")
		URL = strValueToEnter
		
		Environment("URL_Comarch") = URL
		
		If  ExpectedResult="" Then
		 	ExpectedResult="Application : '" &BrowserType & "' should be launched."
		End If
	 
		If lcase(BrowserType) = "ie" Then
			iRet = LaunchIE(URL)
			descript = "IE is launched with url : '"& URL & " done"
			wb_browser = "internet"
		ElseIf lcase(BrowserType) = "chrome" Then
			iRet = LaunchChrome(URL)
			descript = "Chrome is launched with url : '"& URL & " done"
			wb_browser = "chrome"	
		ElseIf lcase(BrowserType) = "firefox" Then
			iRet = LaunchFirefox(URL)
			descript = "Firefox is launched with url : '"& URL & " done"
			wb_browser = "firefox"	
		ElseIf lcase(BrowserType) = "edge" Then
			iRet = LaunchEdge(URL)
			descript = "Edge is launched with url : '"& URL & " done"
			wb_browser = "edge"	
		End If
		Browser("Co-MarchWeb").SetTOProperty "application version",wb_browser&".*"
		
	Else
		Environment("TS_ErrorFound") = 1
		Environment("TS_ErrorDescption") = "input invalid data" 
  		descript = Environment("TS_ErrorDescption")	
		iRet=False
		c_DEBUG = "error"
	End If
	
	call logging(descript,c_DEBUG,3)	
	
	WB_LaunchBrowser = StampStatusToReport (sModule,iRet,Activity,descript,"",strValueToEnter,ExpectedResult)
	
End Function



'**********************************************************************************************************************************
'*  Function Name : LaunchIE()
'*  Purpose:        Launch Internet Explorer program
'*  Arguments:      URL
'* Modified by : Krishnakanth
'*Modified date:10/2/2016	  
'**********************************************************************************************************************************
Function LaunchIE(URL)
	On Error Resume Next
	
	'KillProcess "iexplore.exe"
'	Set oShell = CreateObject("WScript.Shell")
'	killbatch_path = Environment("RootProject")&"\Share\ExternalLibrary\KillProcess.bat"
	ProcessName	="iexplore.exe"
'	oShell.Run killbatch_path&" "&ProcessName ,0 , True	
	SystemUtil.CloseProcessByName ProcessName
	wait 2
	
 	Set IE = CreateObject("InternetExplorer.Application")
	IE.Visible = true
	hWnd = IE.HWND
	IE.Navigate URL

'	While IE.Busy
'	Wend

	Do
		wait 1
	Loop Until ((IE.Busy = True) or (IE.Busy = Empty))
	
'	If Browser("name:=Certificate Error: Navigation Blocked").Exist Then
'		'hWnd=Browser("name:=Certificate Error: Navigation Blocked").GetROProperty("hwnd")
'	Elseif Browser("name:=SCB Easy Net").Exist then
'		'hWnd=Browser("name:=SCB Easy Net").GetROProperty("hwnd")
'	End If
	
	Window("hwnd:=" & hWnd).Activate
	Window("hwnd:=" & hWnd).Maximize

	Browser_Version = GetDeviceProperty("version")		
	If len(Browser_Version) >0 or Browser_Version <> "" or Browser_Version <> null Then
		Environment("Browser_Version") = Browser_Version
	Else
		Environment("Browser_Version") = ""
	End If

	'Browser("SCBEasyNet").SetTOProperty "hwnd",hWnd
	Set IE = Nothing
	LaunchIE = True
	
End Function

'*******************************************************************************************************************************************************************************************************************************************************
'*  Function Name : LaunchChrome
'*  Purpose       : Open Browser Chrome
'*  Arguments:      URL
'*  Creator       : Suebsakul.A
'*******************************************************************************************************************************************************************************************************************************************************
Function LaunchChrome(URL)
	On Error Resume Next
	
	'KillProcess "Chrome.exe"
'	Set oShell = CreateObject("WScript.Shell")
'	killbatch_path = Environment("RootProject")&"\Share\ExternalLibrary\KillProcess.bat"
	ProcessName	="chrome.exe"
'	oShell.Run killbatch_path&" "&ProcessName ,0 , True	
	SystemUtil.CloseProcessByName ProcessName
	wait 2
	
	systemutil.Run "Chrome.exe", URL, , , 3
	
	Browser_Version = GetDeviceProperty("version")		
	If len(Browser_Version) >0 or Browser_Version <> "" or Browser_Version <> null Then
		Environment("Browser_Version") = Browser_Version
	Else
		Environment("Browser_Version") = ""
	End If
	
	Set oShell = Nothing
	LaunchChrome = True
     
End Function

'*******************************************************************************************************************************************************************************************************************************************************
'*  Function Name : LaunchFirefox
'*  Purpose       : Open Browser Firefox
'*  Arguments:      URL
'*  Creator       : Anupol H.
'*******************************************************************************************************************************************************************************************************************************************************
Function LaunchFirefox(URL)
	On Error Resume Next
	
	'KillProcess "Firefox.exe"
'	Set oShell = CreateObject("WScript.Shell")
'	killbatch_path = Environment("RootProject")&"\Share\ExternalLibrary\KillProcess.bat"
	ProcessName	="firefox.exe"
'	oShell.Run killbatch_path&" "&ProcessName ,0 , True		
	SystemUtil.CloseProcessByName ProcessName
	wait 2
	
	systemutil.Run "Firefox.exe", URL, 3
	
	Browser_Version = GetDeviceProperty("version")		
	If len(Browser_Version) >0 or Browser_Version <> "" or Browser_Version <> null Then
		Environment("Browser_Version") = Browser_Version
	Else
		Environment("Browser_Version") = ""
	End If
	
	Set oShell = Nothing
	LaunchFirefox = True
     
End Function

'*******************************************************************************************************************************************************************************************************************************************************
'*  Function Name : LaunchEdge
'*  Purpose       : Open Browser Edge
'*  Arguments:      URL
'*  Creator       : Anupol H.
'*******************************************************************************************************************************************************************************************************************************************************
Function LaunchEdge(URL)
	On Error Resume Next
	
	'KillProcess "MS Edge.exe"
'	Set oShell = CreateObject("WScript.Shell")
'	killbatch_path = Environment("RootProject")&"\Share\ExternalLibrary\KillProcess.bat"
	ProcessName	="MicrosoftEdge.exe"
'	oShell.Run killbatch_path&" "&ProcessName ,0 , True	
	SystemUtil.CloseProcessByName ProcessName
	wait 2
	WebDriverPath = "C:\Program Files (x86)\HP\Unified FunctionalTesting\bin\WebDriverHost.exe"
	systemutil.Run WebDriverPath,URL, 3
	Set oShell = Nothing
	
	Browser_Version = GetDeviceProperty("version")		
	If len(Browser_Version) >0 or Browser_Version <> "" or Browser_Version <> null Then
		Environment("Browser_Version") = Browser_Version
	Else
		Environment("Browser_Version") = ""
	End If
	
	Set oShell = Nothing
	LaunchEdge = True
     
End Function


'**********************************************************************************************************************************
'*  Function Name : 	WB_SendKeys()
'*  Purpose:            To send key or text
'*  Arguments:          strValueToEnter
'* Return Value:        Flag 1 or -1
'**********************************************************************************************************************************
Function WB_SendKeys(strValueToEnter,ExpectedResult)
		On Error Resume Next
		Const sModule = "WB_SendKeys"
		Activity = "send key or text"
		call logging("sModule " & sMODULE,c_DEBUG,3)
		
		Set oShell = CreateObject("WScript.Shell")
		oShell.SendKeys(strValueToEnter)
		Set oShell = Nothing
		
		iRet = CheckError()
		If iRet = True Then
			descript = "send key or text ["& strValueToEnter & "] completely"
		Else
			descript = Environment("TS_ErrorDescption")
			c_DEBUG = "error"
		End If 
		call logging(descript,c_DEBUG,3)
		
		WB_SendKeys = StampStatusToReport (sModule,iRet,Activity,descript,UIName,strValueToEnter,ExpectedResult)
		
End Function


'**********************************************************************************************************************************
'*  Function Name : 	WB_TypeTextOnEdit()
'*  Purpose:            To sendkey text
'*  Arguments:          strValueToEnter
'* Return Value:        Flag 1 or -1
'**********************************************************************************************************************************
Function WB_TypeTextOnEdit_Old(strValueToEnter,UIName,ExpectedResult)
		On Error Resume Next
		Const sModule = "WB_TypeTextOnEdit"
		Activity = "type text"
		call logging("sModule " & sMODULE,c_DEBUG,3)
		
		'For Create Object from UIName
		Set objTestObject = Create_OR_Object(UIName)
		
		'Check Object Exist
		Flag = CheckObjectExist(objTestObject,"")		
		
		If Flag=1 Then
			strValueToEnter = Trim(strValueToEnter)
'			Set objRE = New RegExp		
'				With objRE
'				.Pattern    = "^[a-zA-Z0-9.,!@#$%^&]*$"
'				.IgnoreCase = True
'				.Global     = False
'				End With	
''				
'			If objRE.Test(strValueToEnter)  Then
				call logging("excel value : ["&strValueToEnter&"]",c_DEBUG,3)
'				objTestObject.highlight
'				objTestObject.Click		
'				wait 1
				Set oShell = CreateObject("WScript.Shell")
				
				If len(objTestObject.GetRoProperty("value")) > 0 Then
					objTestObject.Set ""
				End If

				objTestObject.highlight
				objTestObject.Click		
				wait 1
				oShell.SendKeys(strValueToEnter)
								
				For i = 1 To 3 Step 1
					wait 2
					GetTextEdit = objTestObject.GetRoProperty("value")
					call logging("input value : ["&GetTextEdit&"]",c_DEBUG,3)
					If GetTextEdit <> strValueToEnter Then					
						If len(GetTextEdit) > 0 Then
							objTestObject.Set ""
						End If
						objTestObject.highlight
						objTestObject.Click
						wait 1
						oShell.SendKeys(strValueToEnter)						
						iRet = False
					Else
						iRet = True	
						Exit For
					End If
				Next
				Set oShell = Nothing	
'					
'				
'			Else
'			objTestObject.highlight
'			objTestObject.Click
'			If objTestObject.GetRoProperty("html id")<>"accountNumber" and _
'			objTestObject.GetRoProperty("html id") <> "counterpartyIdValue"and _
'			objTestObject.GetRoProperty("html id") <> "bank" Then			
'					wait 0.5
'					Set UFT_App = CreateObject("QuickTest.Application")
'					UFT_App.Options.Web.RunMouseByEvents = False
'					objTestObject.Set strValueToEnter
'	
'	'				For i = 1 To 3 Step 1
'	'					If objTestObject.GetRoProperty("value") <> strValueToEnter Then
'	'						wait 1
'	'						objTestObject.Set strValueToEnter
'	'						iRet = False				
'	'					Else
'	'						iRet = True
'	'						Exit For
'	'					End If				
'	'				Next
'	
'					UFT_App.Options.Web.RunMouseByEvents = True
'					Set UFT_App = Nothing							
'	'			End If	
'				objTestObject.Click
'				wait 0.5
'			Else
'				wait 1
'				Set oShell = CreateObject("WScript.Shell")
'				If len(objTestObject.GetRoProperty("value")) > 0 Then
'					objTestObject.Set ""
'				End If
'				oShell.SendKeys(strValueToEnter)	
'				Set oShell = Nothing				
'			End If
'			
'			iRet = True
'			Set objRE = Nothing

			If iRet = True Then
				descript = "Type text ["&strValueToEnter& "] completely"
			Else
				c_DEBUG = "error"
				descript = "Input text ["&objTestObject.GetRoProperty("value")&"] not match excel data ["&strValueToEnter& "],Failed to type text"
			End If 
		Else
			c_DEBUG = "error"
			Environment("TS_ErrorFound") = 1
			Environment("TS_ErrorDescption") = "Not Found Object ["&UIName&"]" 
	  		descript = Environment("TS_ErrorDescption")
			iRet=False	
		End If
		Set objTestObject = Nothing
		call logging(descript,c_DEBUG,3)
		
		WB_TypeTextOnEdit = StampStatusToReport (sModule,iRet,Activity,descript,UIName,strValueToEnter,ExpectedResult)
		
End Function

'**********************************************************************************************************************************
'*  Function Name : 	WB_TypeTextOnEdit()
'*  Purpose:            To sendkey text
'*  Arguments:          strValueToEnter
'* Return Value:        Flag 1 or -1
'**********************************************************************************************************************************
Function WB_TypeTextOnEdit(strValueToEnter,UIName,ExpectedResult)
		On Error Resume Next
		Const sModule = "WB_TypeTextOnEdit"
		Activity = "type text"
		call logging("sModule " & sMODULE,c_DEBUG,3)
		
		'For Create Object from UIName
		Set objTestObject = Create_OR_Object(UIName)
		
		'Check Object Exist
		Flag = CheckObjectExist(objTestObject,"")		
		
		If Flag=1 Then
			strValueToEnter = Trim(strValueToEnter)
				call logging("excel value : ["&strValueToEnter&"]",c_DEBUG,3)
				Set oShell = CreateObject("WScript.Shell")
				
				If len(objTestObject.GetRoProperty("value")) > 0 Then
					objTestObject.Set ""
				End If

				objTestObject.highlight
				wait 2
				objTestObject.Click		
				wait 1
				QuickClip(strValueToEnter)	
				oShell.SendKeys "^{v}"
								
				For i = 1 To 3 Step 1
					wait 2
					GetTextEdit = objTestObject.GetRoProperty("value")
					call logging("input value : ["&GetTextEdit&"]",c_DEBUG,3)
					If GetTextEdit <> strValueToEnter Then					
						If len(GetTextEdit) > 0 Then
							objTestObject.Set ""
						End If
						objTestObject.highlight
						wait 1
						objTestObject.Click		
						wait 0.5
						QuickClip(strValueToEnter)	
						oShell.SendKeys "^{v}"					
						iRet = False
					Else
						iRet = True	
						Exit For
					End If
				Next
				Set oShell = Nothing	

			If iRet = True Then
				descript = "Type text ["&strValueToEnter& "] completely"
			Else
				c_DEBUG = "error"
				descript = "Input text ["&objTestObject.GetRoProperty("value")&"] not match excel data ["&strValueToEnter& "],Failed to type text"
			End If 
		Else
			c_DEBUG = "error"
			Environment("TS_ErrorFound") = 1
			Environment("TS_ErrorDescption") = "Not Found Object ["&UIName&"]" 
	  		descript = Environment("TS_ErrorDescption")
			iRet=False	
		End If
		Set objTestObject = Nothing
		call logging(descript,c_DEBUG,3)
		
		WB_TypeTextOnEdit = StampStatusToReport (sModule,iRet,Activity,descript,UIName,strValueToEnter,ExpectedResult)
		
End Function

'**********************************************************************************************************************************
'*  Function Name : 	WB_SetTextOnEdit()
'*  Purpose:            To input any text on Text box     
'*  Arguments:          strValueToEnter,UIName,ExpectedResult
'* Return Value:        Flag 1 or -1
'**********************************************************************************************************************************
Function WB_SetTextOnEdit(strValueToEnter,UIName,ExpectedResult)
	On Error Resume Next
	Const sModule = "WB_SetTextOnEdit"
	Activity = "set text on textbox"
	call logging("sModule " & sMODULE,c_DEBUG,3)

	If  ExpectedResult="" Then
		ExpectedResult="Should enter text: '"& strValueToEnter & "' on EditBox: '"&UIName & "' completely "
	End If
	
	'For Create Object from UIName
	set objTestObject = Create_OR_Object(UIName)
	
	'Check Object Exist
	Flag = CheckObjectExist(objTestObject,"")
	
	If Flag=1 Then
		strValueToEnter=Trim(strValueToEnter)
		objTestObject.Click
		wait 1
		objTestObject.Set strValueToEnter
			
		'Check Error Before Input Text
		iRet = CheckError()
		If iRet = True Then
			descript = "enter text ["& strValueToEnter & "] completely"
		Else
			c_DEBUG = "error"
			descript = Environment("TS_ErrorDescption")
		End If 
	Else
		c_DEBUG = "error"
		Environment("TS_ErrorFound") = 1
		Environment("TS_ErrorDescption") = "Not Found Object ["&UIName&"]" 
  		descript = Environment("TS_ErrorDescption")
		iRet=False
	End If
	
	set objTestObject = Nothing
	call logging(descript,c_DEBUG,3)
	WB_SetTextOnEdit = StampStatusToReport (sModule,iRet,Activity,descript,UIName,strValueToEnter,ExpectedResult)

End Function

'**********************************************************************************************************************************
'*  Function Name : 	WB_SetPassword()
'*  Purpose:            To input any text on Text box (Encode Text)
'*  Arguments:          strValueToEnter,UIName,ExpectedResult
'* Return Value:        Flag 1 or -1 
'**********************************************************************************************************************************
Function WB_SetPassword(strValueToEnter,UIName,ExpectedResult)
   On Error Resume Next
   Const sModule = "WB_SetPassword"
   Activity = "set text on textbox"
   call logging("sModule " & sMODULE,c_DEBUG,3)

	 If  ExpectedResult="" Then
		  ExpectedResult="Should enter password: '"& strValueToEnter & "' on EditBox: '"&UIName & "' completely "
	 End If
	 
	'For Create Object from UIName
	set objTestObject = Create_OR_Object(UIName)
	
	Browser("Co-MarchWeb").Page("Payment").Sync
	
	'Check Object Exist
	Flag = CheckObjectExist(objTestObject,"")
	
	If Flag=1 Then
	
		objTestObject.Click
		objTestObject.SetSecure strValueToEnter
		
		'Check Error Before Input Text
		iRet = CheckError()
		If iRet = True Then
			descript = "Set text in password field ["& strValueToEnter & "] completely"
		Else
			c_DEBUG = "error"
			descript = Environment("TS_ErrorDescption")
		End If 
	Else
		c_DEBUG = "error"
		Environment("TS_ErrorFound") = 1
		Environment("TS_ErrorDescption") = "Not Found Object ["&UIName&"]" 
  		descript = Environment("TS_ErrorDescption")
		iRet=False
	End If
	
	set objTestObject = Nothing
	call logging(descript,c_DEBUG,3)
	WB_SetPassword = StampStatusToReport (sModule,iRet,Activity,descript,UIName,strValueToEnter,ExpectedResult)

End Function

'**********************************************************************************************************************************
'*  Function Name : WB_ClickOnButton()
'*  Purpose:        To click any button with no matter technology eg. WinButton, VbButton, WebButton, WebFile
'*  Arguments:      strValueToEnter,UIName,ExpectedResult
'* Return Value:    Flag 1 or -1 
'**********************************************************************************************************************************
Function WB_ClickOnButton(strValueToEnter,UIName,ExpectedResult)
	On Error Resume Next
   	Const sModule = "WB_ClickOnButton"
   	Activity ="click on button"
   	call logging("sModule " & sMODULE,c_DEBUG,3)	
	
	If lcase(trim(strValueToEnter)) <> "null" Then
		If  ExpectedResult="" Then
			 ExpectedResult="Should click on button: '"&UIName &"' completely"
		 End If
		
		'For Create Object from UIName
		set objTestObject = Create_OR_Object(UIName)
		
		If lcase(trim(strValueToEnter)) <> "yes" Then
			If lcase(UIName)=lcase("PM_MFUNewPayment_Btn") Then
				objTestObject.SetToProperty "xpath","//div[@class='counterparty-details']/div[@class='alias ellipsis' and text()='"&strValueToEnter&"']/following-sibling::button"
			Else
				objTestObject.SetToProperty "innertext",strValueToEnter
			End If
		End If
		
		'Check Object Exist
		Flag = CheckObjectExist(objTestObject,"")
		
		If Flag=1 Then
			
				If lcase(objTestObject.GetROproperty("micclass")) = "webbutton"  Then
					For i = 1 To 5 Step 1
						If objTestObject.GetROproperty("disable") = 0 Then
							objTestObject.Click
							iRet = True
							Exit For
						Else
							wait 1				
							call logging("wait for object is enabled",c_DEBUG,3)
							iRet = False
						End If
					Next
				Else
					objTestObject.Click
					iRet = True
				End If
			
			
			If iRet Then
				'Check Error Before Input Text
				iRet = CheckError()
				If iRet Then
					descript = "Click on button ["& strValueToEnter & "] done"
				Else
					c_DEBUG = "error"
					descript = Environment("TS_ErrorDescption")
				End If
				
			Else
				c_DEBUG = "error"
				descript = "This button ["& strValueToEnter & "] is disabled"
			End If 
		Else
			c_DEBUG = "error"
			Environment("TS_ErrorFound") = 1
			Environment("TS_ErrorDescption") = "Not Found Object ["&UIName&"]" 
	  		descript = Environment("TS_ErrorDescption")
			iRet=False
		End If
	Else
		descript = "Skip clicked on button"
		iRet = True
	End If
	set objTestObject = Nothing
	call logging(descript,c_DEBUG,3)
	WB_ClickOnButton = StampStatusToReport (sModule,iRet,Activity,descript,UIName,strValueToEnter,ExpectedResult)
	
End Function

'**********************************************************************************************************************************
'*  Function Name : 	WB_GetText()
'*  Purpose:            To get  text in label (WebEdit or WebLabel)
'*  Arguments:          strValueToEnter,UIName,ExpectedResult
'* Return Value:        GetText 
'**********************************************************************************************************************************
Function WB_GetText(strValueToEnter,UIName,ExpectedResult)
	On Error Resume Next
   	Const sModule = "WB_GetText"
   	Activity ="get text"
  	call logging("sModule " & sMODULE,c_DEBUG,3)


	If  ExpectedResult =""  Then
	      ExpectedResult="The EditBox: '"& UIName & "'  shown value done"
	End If

	'For Create Object from UIName
	set objTestObject = Create_OR_Object(UIName)
	
	'Check Object Exist
	Flag = CheckObjectExist(objTestObject,"")
	
	If Flag=1 Then
	
		If lcase(objTestObject.GetROproperty("micclass")) = "webedit" or lcase(objTestObject.GetROproperty("micclass")) = "webbutton" Then
		  	RoProperty="value"
		Else
			RoProperty="innertext"
  		End if
  		
  		Environment(strValueToEnter) = objTestObject.GetROProperty(RoProperty)
  				
		'Check Error Before Input Text
		iRet = CheckError()
		If iRet = True Then
			descript="success get text ["&Environment(strValueToEnter)&"]"
		Else
			c_DEBUG = "error"
			descript = Environment("TS_ErrorDescption")
		End If 
	Else
		c_DEBUG = "error"
'		Environment("TS_ErrorFound") = 1
		Environment("TS_ErrorDescption") = "Not Found Object ["&UIName&"]" 
  		descript = Environment("TS_ErrorDescption")
		iRet=False
	End If
	
	set objTestObject = Nothing
	call logging(descript,c_DEBUG,3)
	WB_GetText = StampStatusToReport (sModule,iRet,Activity,descript,UIName,strValueToEnter,ExpectedResult)
	  
End Function

'**********************************************************************************************************************************
'*  Function Name : WB_SelectRadioButton()
'*  Purpose:        To select radio button by value
'*  Arguments:      strValueToEnter,UIName,ExpectedResult
'* Return Value:    Flag 1 or -1 
'**********************************************************************************************************************************
Function WB_SelectRadioButton(strValueToEnter,UIName,ExpectedResult)
	On Error Resume Next
   	Const sModule = "WB_SelectRadioButton"
   	Activity ="select radio button"
   	call logging("sModule " & sMODULE,c_DEBUG,3)	
	
	If  ExpectedResult="" Then
		 ExpectedResult="Should select item: '"& strValueToEnter &"' in the radio button: '"&UIname & "' completely"
	 End If
	
	'For Create Object from UIName
	set objTestObject = Create_OR_Object(UIName)
	
	'Check Object Exist
	Flag = CheckObjectExist(objTestObject,"")
	
	If Flag=1 Then
	
		If objTestObject.GetROproperty("micclass")="WinRadioButton" Then
           objTestObject.Set 
		ElseIf objTestObject.GetROproperty("micclass")="WebRadioGroup" Then
		   objTestObject.Select strValueToEnter
		ElseIf objTestObject.GetROproperty("micclass")="WebElement" Then
			If lcase(objTestObject.GetROproperty("html tag"))="label" Then
				objTestObject.SetToProperty "xpath","//DIV[normalize-space()="&strValueToEnter&"]/LABEL[1]"
			ElseIf lcase(objTestObject.GetROproperty("html tag"))="span" Then
				objTestObject.SetToProperty "innertext",strValueToEnter	
			End If
			objTestObject.Click
  		End if
		
		'Check Error Before Input Text
		iRet = CheckError()
		If iRet = True Then
			descript = "Select ["& strValueToEnter & "] on radio ["& UIName & "] done"
		Else
			c_DEBUG = "error"
			descript = Environment("TS_ErrorDescption")
		End If 
	Else
		c_DEBUG = "error"
		Environment("TS_ErrorFound") = 1
		Environment("TS_ErrorDescption") = "Not Found Object ["&UIName&"]" 
  		descript = Environment("TS_ErrorDescption")
		iRet=False
	End If
	
	set objTestObject = Nothing
	call logging(descript,c_DEBUG,3)
	WB_SelectRadioButton = StampStatusToReport (sModule,iRet,Activity,descript,UIName,strValueToEnter,ExpectedResult)
	
End Function

'**********************************************************************************************************************************
'*  Function Name : WB_SelectDropdown()
'*  Purpose:        To select dropdown  by value
'*  Arguments:      strValueToEnter,UIName,ExpectedResult
'* Return Value:    Flag 1 or -1 
'**********************************************************************************************************************************
Function WB_SelectDropdown(strValueToEnter,UIName,ExpectedResult)
	On Error Resume Next
   	Const sModule = "WB_SelectDropdown"
   	Activity ="select dropdown"
   	call logging("sModule " & sMODULE,c_DEBUG,3)	
	
	If  ExpectedResult="" Then
		 ExpectedResult="Should select item: '"& strValueToEnter &"' in the dropdown : '"&UIname & "' completely"
	 End If
	
	'For Create Object from UIName
	set objTestObject = Create_OR_Object(UIName)
	
	'Check Object Exist
	Flag = CheckObjectExist(objTestObject,"")
	
	If Flag=1 Then
	
		If objTestObject.GetROproperty("micclass")="Weblist" Then

			objTestObject.Select strValueToEnter
		Else
			objTestObject.Click
			UIName_List="DropDownList_Value_Btn"
			set List_Object = Create_OR_Object(UIName_List)
			List_Object.SetToProperty "innertext",strValueToEnter
			Flag_List = CheckObjectExist(List_Object,"")
			If Flag_List = 1 Then
				List_Object.Click
				iRet = True
			Else
				iRet = False
			End if
			set List_Object=Nothing
  		End if

		'Check Error Before Input Text
'		iRet = CheckError()
		If iRet = True Then
			descript = "Select ["& strValueToEnter & "] on dropdown ["& UIName & "] done"
		Else
			c_DEBUG = "error"
			descript = "Not found value list ["&strValueToEnter&"] on dropdown ["& UIName & "]"
		End If 
	Else
		c_DEBUG = "error"
		Environment("TS_ErrorFound") = 1
		Environment("TS_ErrorDescption") = "Not Found Object ["&UIName&"]" 
  		descript = Environment("TS_ErrorDescption")
		iRet=False
	End If
	
	set objTestObject = Nothing
	call logging(descript,c_DEBUG,3)
	WB_SelectDropdown = StampStatusToReport (sModule,iRet,Activity,descript,UIName,strValueToEnter,ExpectedResult)
	
End Function

'**********************************************************************************************************************************
'*  Function Name : WB_SelectCheckBox()
'*  Purpose:        To select checkbox  by value
'*  Arguments:      strValueToEnter,UIName,ExpectedResult
'* Return Value:    Flag 1 or -1 
'**********************************************************************************************************************************
Function WB_SelectCheckBox(strValueToEnter,UIName,ExpectedResult)
	On Error Resume Next
   	Const sModule = "WB_SelectCheckBox"
   	Activity ="select checkbox"
   	call logging("sModule " & sMODULE,c_DEBUG,3)	
	
	If  ExpectedResult="" Then
		 ExpectedResult="Should select item: '"& strValueToEnter &"' in the checkbox : '"&UIname & "' completely"
	 End If
	
	'For Create Object from UIName
	set objTestObject = Create_OR_Object(UIName)
	'Check Object Exist
	Flag = CheckObjectExist(objTestObject,"")
	
	If Flag=1 Then
	
		objTestObject.set strValueToEnter

		'Check Error Before Input Text
		iRet = CheckError()
		If iRet = True Then
			descript = "Select ["& strValueToEnter & "] on checkbox ["& UIName & "] done"
		Else
			c_DEBUG = "error"
			descript = Environment("TS_ErrorDescption")
		End If 
	Else
		c_DEBUG = "error"
		Environment("TS_ErrorFound") = 1
		Environment("TS_ErrorDescption") = "Not Found Object ["&UIName&"]" 
  		descript = Environment("TS_ErrorDescption")
		iRet=False
	End If
	
	set objTestObject = Nothing
	call logging(descript,c_DEBUG,3)
	WB_SelectCheckBox = StampStatusToReport (sModule,iRet,Activity,descript,UIName,strValueToEnter,ExpectedResult)
	
End Function

'**********************************************************************************************************************************
'*  Function Name : WB_CheckTextOnLabel()
'*  Purpose:        To compare text on Excel data and App Label text is match 
'*  Arguments:      strValueToEnter,UIName,ExpectedResult
'* 	Return Value:   Flag True or False
'* 	Author By		ANUPOL H. (AMS-GABLE)
'**********************************************************************************************************************************
Function WB_CheckTextOnLabel(strValueToEnter,UIName,ExpectedResult)
	On Error Resume Next
	Activity ="check text on label"
	Const sModule = "WB_CheckTextOnLabel"	
	call logging("sModule " & sMODULE,c_DEBUG,2)
	
	call logging("UIName : " & UIName,c_DEBUG,3)
	 
	set objTestObject = Create_OR_Object(UIName)
	
	Flag = CheckObjectExist(objTestObject,"")
	
	If Flag=1 Then

		If lcase(objTestObject.GetROproperty("micclass")) = "webedit" or lcase(objTestObject.GetROproperty("micclass")) = "webbutton" Then
		  	RoProperty="value"
		Else
			RoProperty="innertext"
  		End if
  		
		get_text = objTestObject.GetROProperty(RoProperty)
		objTestObject.Highlight
'		CompareVal = StrComp(get_text, strValueToEnter, vbTextCompare)
		If trim(get_text) = trim(strValueToEnter) Then
			iRet = True
		Else
			c_DEBUG = "error"
			iRet = False
		End If
	Else
		iRet = False
	End If	
		If iRet = True Then
			descript ="Excel Data : <b>["&strValueToEnter&"]</b> match app label : <b>["&get_text&"]</b>"
			call logging("Excel Data : ["&strValueToEnter&"] match app label : ["&get_text&"]",c_DEBUG,2)
		Else
			If Flag=-1 Then
				descript="not found object : "&UIName
				call logging(descript,c_DEBUG,2)
			Else
				descript ="Excel Data : <b>["&strValueToEnter&"]</b> <font color=""red"">not match </font> app label : <b>["&get_text&"]</b>"
				call logging("Excel Data : ["&strValueToEnter&"] not match app label : ["&get_text&"]",c_DEBUG,2)
			End If
		End If
		
	set objTestObject=Nothing
	WB_CheckTextOnLabel = StampStatusToReport (sModule,iRet,Activity,descript,UIName,strValueToEnter,ExpectedResult)
		
End Function

'**********************************************************************************************************************************
'*  Function Name : WB_CheckTextOnValue()
'*  Purpose:        To compare two text is equal 
'*  Arguments:      strValueToEnter,ExpectedResult
'* 	Return Value:   Flag True or False
'* 	Author By		ANUPOL H. (AMS-GABLE)
'**********************************************************************************************************************************
Function WB_CheckTextOnValue(strValueToEnter,ExpectedResult)
	On Error Resume Next
	Activity ="check text on value"
	Const sModule = "WB_CheckTextOnValue"	
	call logging("sModule " & sMODULE,c_DEBUG,2)
	call logging("strValueToEnter : " & strValueToEnter,c_DEBUG,3)
	 
	
	If instr(strValueToEnter,";") > 0 Then
		splitvar = split(strValueToEnter,";")
		CompareText_1 = splitvar(0)
		CompareText_2 = splitvar(1)
		If trim(CompareText_1) = trim(CompareText_2) Then
			iRet = True
			descript ="CompareText_1 : <b>["&CompareText_1&"]</b> match CompareText_2 : <b>["&CompareText_2&"]</b>"
			call logging("CompareText_1 : ["&CompareText_1&"] match CompareText_2 : ["&CompareText_2&"]",c_DEBUG,2)			
		Else
			c_DEBUG = "error"
			iRet = False
			descript ="CompareText_1 : <b>["&CompareText_1&"]</b> <font color=""red"">not match </font> CompareText_2 : <b>["&CompareText_2&"]</b>"
			call logging("CompareText_1 : ["&CompareText_1&"] not match CompareText_2 : ["&CompareText_2&"]",c_DEBUG,2)
		End If
	Else
		c_DEBUG = "error"
		iRet = False
		descript="input invalid data"
		call logging(descript,c_DEBUG,2)
	End If	
	
	WB_CheckTextOnValue = StampStatusToReport (sModule,iRet,Activity,descript,UIName,strValueToEnter,ExpectedResult)
		
End Function

'**********************************************************************************************************************************
'*  Function Name :	WB_WaitIdle()
'*  Purpose:        Set timeout for wait  
'*  Arguments:      strValueToEnter
'* 	Return Value:   Flag True or False
'* 	Author By		THAKOON L. (AMS-GABLE)
'************************************************************************************************************************
Function WB_WaitIdle(strValueToEnter,ExpectedResult)
	Activity="set timeout for wait"
	Const sModule = "WB_WaitIdle"
  	call logging("sModule " & sMODULE,c_DEBUG,3)
  	
	expect_time = DateAdd("s",strValueToEnter,time())  	
	For i = 1 To strValueToEnter Step 1
		If DateDiff("s",time(),expect_time) <=0 Then
			call logging( "Finish wait second "&strValueToEnter&":",c_DEBUG,3)
			Exit for
		Else
			wait 1
			call logging( "remain second :" &DateDiff("s",time(),expect_time),c_DEBUG,3)
		End If
	Next
	
	iRet = CheckError()
	If iRet = True Then
		descript="wait <b>["&strValueToEnter& "]</b> second"
		call logging("wait " & strValueToEnter & " second",c_DEBUG,3)
	Else
		c_DEBUG = "error"
	  	descript = Environment("TS_ErrorDescption")
	  	call logging(descript,c_DEBUG,3)
	End If

	WB_WaitIdle = StampStatusToReport (sModule,iRet,Activity,descript,UIName,strValueToEnter,ExpectedResult)
End Function

'**********************************************************************************************************************************
'*  Function Name :	WB_PlusNumber()
'*  Purpose:        Plus 2 number and add value in Environment("UserDefineVariable") 
'*  Arguments:      strValueToEnter
'* 	Return Value:   Flag True or False
'* 	Author By		ANUPOL H. (AMS-GABLE)
'**********************************************************************************************************************************
Function WB_PlusNumber(strValueToEnter,ExpectedResult)
	On Error Resume Next
	Activity="plus number"
	Const sModule = "WB_PlusNumber"
  	call logging("sModule " & sMODULE,c_DEBUG,3)
  	Operation="+"
	ResultVal = OperationNumber(strValueToEnter,Operation)
	Flag = split(ResultVal,";")
	If Flag(0) = "True" Then
		call logging(Flag(1),c_DEBUG,3)
		descript=Flag(1)
		iRet=True
	Else
		call logging(Flag(1),c_DEBUG,3)
		descript=Flag(1)
		iRet=False
	End If
	
	WB_PlusNumber = StampStatusToReport (sModule,iRet,Activity,descript,UIName,strValueToEnter,ExpectedResult)
	
End Function

'**********************************************************************************************************************************
'*  Function Name :	WB_MinusNumber()
'*  Purpose:        Minus 2 number and add value in Environment("UserDefineVariable") 
'*  Arguments:      strValueToEnter
'* 	Return Value:   Flag True or False
'* 	Author By		ANUPOL H. (AMS-GABLE)
'**********************************************************************************************************************************
Function WB_MinusNumber(strValueToEnter,ExpectedResult)
	On Error Resume Next
	Activity="minus number"
	Const sModule = "WB_MinusNumber"
  	call logging("sModule " & sMODULE,c_DEBUG,3)
	Operation="-"
	ResultVal = OperationNumber(strValueToEnter,Operation)
	Flag = split(ResultVal,";")
	If Flag(0) = "True" Then
		call logging(Flag(1),c_DEBUG,3)
		descript=Flag(1)
		iRet=True
	Else
		call logging(Flag(1),c_DEBUG,3)
		descript=Flag(1)
		iRet=False
	End If
	
	WB_MinusNumber = StampStatusToReport (sModule,iRet,Activity,descript,UIName,strValueToEnter,ExpectedResult)
	
End Function

'**********************************************************************************************************************************
'*  Function Name :	WB_MultiplyNumber()
'*  Purpose:        Multiply 2 number and add value in Environment("UserDefineVariable") 
'*  Arguments:      strValueToEnter
'* 	Return Value:   Flag True or False
'* 	Author By		ANUPOL H. (AMS-GABLE)
'**********************************************************************************************************************************
Function WB_MultiplyNumber(strValueToEnter,ExpectedResult)
	On Error Resume Next
	Activity="multiply number"
	Const sModule = "WB_MultiplyNumber"
  	call logging("sModule " & sMODULE,c_DEBUG,3)
	Operation="*"
	ResultVal = OperationNumber(strValueToEnter,Operation)
	Flag = split(ResultVal,";")	
	If Flag(0) = "True" Then
		call logging(Flag(1),c_DEBUG,3)
		descript=Flag(1)
		iRet=True
	Else
		call logging(Flag(1),c_DEBUG,3)
		descript=Flag(1)
		iRet=False
	End If
	
	WB_MultiplyNumber = StampStatusToReport (sModule,iRet,Activity,descript,UIName,strValueToEnter,ExpectedResult)

End Function

'**********************************************************************************************************************************
'*  Function Name :	WB_DivideNumber()
'*  Purpose:        Divide 2 number and add value in Environment("UserDefineVariable")
'*  Arguments:      strValueToEnter
'* 	Return Value:   Flag True or False
'* 	Author By		ANUPOL H. (AMS-GABLE)
'**********************************************************************************************************************************
Function WB_DivideNumber(strValueToEnter,ExpectedResult)
	On Error Resume Next
	Activity="divide number"
	Const sModule = "WB_DivideNumber"
  	call logging("sModule " & sMODULE,c_DEBUG,3)
	Operation="/"
	ResultVal = OperationNumber(strValueToEnter,Operation)
	Flag = split(ResultVal,";")		
	If Flag(0) = "True" Then
		call logging(Flag(1),c_DEBUG,3)
		descript=Flag(1)
		iRet=True	
	Else
		call logging(Flag(1),c_DEBUG,3)
		descript=Flag(1)
		iRet=False
	End If
		
	WB_DivideNumber = StampStatusToReport (sModule,iRet,Activity,descript,UIName,strValueToEnter,ExpectedResult)
	
End Function

'**********************************************************************************************************************************
'*  Function Name :	OperationNumber()
'*  Purpose:        Operation 2 number and add value in Environment("UserDefineVariable") 
'*  Arguments:      strValueToEnter,Operation
'* 	Return Value:   Flag True or False
'* 	Author By		ANUPOL H. (AMS-GABLE)
'**********************************************************************************************************************************
Function OperationNumber(strValueToEnter,Operation)
	On Error Resume Next
	
	Set objRE = New RegExp
	objRE.Pattern    = "^(?=.)([+-]?(0|([1-9](\d*|\d{0,2}(,\d{3})*)))?(\.([0-9]+))?)$"
	
	splitVar = split(strValueToEnter,";") 
	Variable1 = trim(splitVar(0))
	Variable2 = trim(splitVar(1))
	Variable3 = trim(splitVar(2))
	
	If objRE.Test(Variable1)=False Then
		Variable1 = Environment(Variable1)
	End If
	
	If objRE.Test(Variable2)=False Then
		Variable2 = Environment(Variable2)
	End If	
	
	call logging("Variable1 ["&splitVar(0)& "] value [" & Variable1 &"]",c_DEBUG,3)
	call logging("Variable2 ["&splitVar(1)& "] value [" & Variable2 &"]",c_DEBUG,3)
	call logging("Variable3 ["&Variable3&"]" ,c_DEBUG,3)
	 
	IsNotErr = CheckError() 
	
	If IsNotErr=True Then 
		
		If objRE.Test(Variable1)=True and objRE.Test(Variable2) = True Then
			Val_1=cdbl(Variable1)
			Val_2=cdbl(Variable2)
'			SetVal=FormatNumber(strValueToEnter,,,,0)
			Environment(Variable3) = FormatNumber(Eval(Val_1&Operation&Val_2),,-1)
			call logging("Environment("""& Variable3&""") = " & Environment(Variable3),c_DEBUG,3)
			descript=Val_1&Operation&Val_2&"  / Set Environment("""& Variable3&""") = " &Environment(Variable3)
			Flag= "True;"&descript
		Else
			Environment(Variable3)="::N/A"
			descript = "this variable"
			If objRE.Test(Variable1) = False Then
				descript_v1=" ["&Variable1&"] not number "
				descript = descript & descript_v1
			End If
				
			If objRE.Test(Variable2) = False Then
				descript_v2=" ["&Variable2&"] not number "
				descript = descript & descript_v2
			End If
			
			Flag="False;"&descript&" / Set Environment("""& Variable3&""") = " &Environment(Variable3)			
		End If
		Set objRE = nothing
	Else
		Flag = "False;"&Environment("TS_ErrorDescption")
	End If
		OperationNumber = Flag
	
End Function


'**********************************************************************************************************************************
'*  Function Name :	WB_CloseBrowser()
'*  Purpose:        Close specific browser
'*  Arguments:      strValueToEnter
'* 	Return Value:   Flag True or False
'* 	Author By		ANUPOL H. (AMS-GABLE)
'**********************************************************************************************************************************
Function WB_CloseBrowser(strValueToEnter,ExpectedResult)
	On Error Resume Next
	Dim browser
	Activity="Close specific browser"
	Const sModule = "WB_CloseBrowser"
  	call logging("sModule " & sMODULE,c_DEBUG,3)
  	
	Set oShell = CreateObject("WScript.Shell")
	
	If lcase(Environment("DefaultBrowser")) = "ie" Then
		ProcessName = "iexplore.exe"
	ElseIf lcase(Environment("DefaultBrowser")) = "chrome" Then
		ProcessName = "chrome.exe"
	ElseIf lcase(Environment("DefaultBrowser")) = "firefox" Then
		ProcessName = "firefox.exe"
	ElseIf lcase(Environment("DefaultBrowser")) = "edge" Then
		ProcessName = "MicrosoftEdge.exe"
	End If
	
'	Set oShell = CreateObject("WScript.Shell")
'	killbatch_path = Environment("RootProject")&"\Share\ExternalLibrary\KillProcess.bat"	
'	oShell.Run """"&killbatch_path&""" "&ProcessName ,0 , True			
	SystemUtil.CloseProcessByName ProcessName
	descript = "close browser "&Environment("DefaultBrowser")& " done"
	iRet = True
	
	If Environment("RecoveryRun") <> "yes" Then
		WB_CloseBrowser = StampStatusToReport (sModule,iRet,Activity,descript,UIName,strValueToEnter,ExpectedResult)
	End If
	
End Function

'**********************************************************************************************************************************
'*  Function Name : WB_WaitUntilFindObj
'*  Purpose:        wait until find object
'*  Arguments:      strValueToEnter,UIName,ExpectedResult
'* 	Return Value:   Flag True or False
'* 	Author By		ANUPOL H. (AMS-GABLE)
'************************************************************************************************************************
Function WB_WaitUntilFindObj(strValueToEnter,UIName,ExpectedResult)
	On Error Resume Next
	Activity = "wait until find object" 
	Const sModule = "WB_WaitUntilFindObj"
  	call logging("sModule " & sMODULE,c_DEBUG,3)
  	iRet = False
  	
  	If instr(strValueToEnter,";") > 0 Then	
  	
  		SplitVar = split(strValueToEnter,";")
  		waittime = SplitVar(0) 
  		replacetext = SplitVar(1) 
  		
		set objTestObject = Create_OR_Object(UIName)
		
		If len(replacetext) > 0 and lcase(replacetext) <>"yes" Then
			If lcase(UIName)=lcase("PM_MFUNewPayment_Btn") Then
				objTestObject.SetToProperty "xpath","//div[@class='counterparty-details']/div[@class='alias ellipsis' and text()='"&replacetext&"']/following-sibling::button"
			Else
				RoProperty="innertext"	
				objTestObject.SetToProperty RoProperty,replacetext
				call logging("Set ROProperty "&RoProperty&" to ["&replacetext&"]",c_DEBUG,3)
			End If
		End If
		
		call logging("Wait object ["&UIName&"] for "&waittime&" second",c_DEBUG,3)
		
		For wait_second = 1 To waittime Step 1
			objTestObject.RefreshObject()		
			waittime_countdown = (waittime+1) - wait_second
			PopupAlert sModule,"Wait ["&UIName&"] Object Remain "&waittime_countdown-1 &" second",""	
			call logging("wait time "&waittime_countdown &" second",c_DEBUG,3)
			If  objTestObject.exist(1) Then
			    objTestObject.object.scrollIntoview
				objTestObject.Highlight
				iRet = True
				Exit for
			End If	
		Next
	
		If iRet = True Then
			descript= "found expect object ["&UIName&"]"
		Else
			c_DEBUG = "error"
			descript= "not found expect object ["&UIName&"]"
		End If			
	Else		
		c_DEBUG = "error"
		descript= "invalid input value"	
		Environment("TS_ErrorFound")=1
	End If
	
	call logging(descript,c_DEBUG,3)		
	Set objTestObject = Nothing
	
	WB_WaitUntilFindObj = StampStatusToReport (sModule,iRet,Activity,descript,UIName,strValueToEnter,ExpectedResult)
	  
End Function
	

'**********************************************************************************************************************************
'*  Function Name : WB_WaitUntilNotFindObj
'*  Purpose:        wait until not find object
'*  Arguments:      strValueToEnter,UIName,ExpectedResult
'* 	Return Value:   Flag True or False
'* 	Author By		ANUPOL H. (AMS-GABLE)
'************************************************************************************************************************
Function WB_WaitUntilNotFindObj(strValueToEnter,UIName,ExpectedResult)
	Dim check_ObjExist
	On Error Resume Next
	Activity = "wait until not find object" 
	Const sModule = "WB_WaitUntilNotFindObj"
  	call logging("sModule " & sMODULE,c_DEBUG,3)
  	iRet = False
  	If instr(strValueToEnter,";")>0 Then	
  		SplitVar = split(strValueToEnter,";")
  		waittime = SplitVar(0) 
  		replacetext = SplitVar(1) 
  		
		set objTestObject = Create_OR_Object(UIName)
		
		If len(replacetext) > 0 and lcase(replacetext) <>"yes" Then
			RoProperty="innertext"
			objTestObject.SetToProperty RoProperty,replacetext
			call logging("Set ROProperty "&RoProperty&" to ["&replacetext&"]",c_DEBUG,3)
		End If
		
		call logging("Wait object ["&UIName&"] for "&waittime&" second",c_DEBUG,3)
		
		For wait_second = 1 To waittime Step 1
			objTestObject.RefreshObject()
			check_ObjExist = objTestObject.exist(1)			
			waittime_countdown = (waittime+1) - wait_second
			PopupAlert sModule,"Wait ["&UIName&"] Object Remain "&waittime_countdown-1 &" second",""
			call logging("wait time "&waittime_countdown &" second",c_DEBUG,3)
			If  check_ObjExist = false Then
				Flag = 1
				iRet = True
				Exit for
			End If	
		Next
	End If	
	
	If iRet = True Then
		If Flag = 1 Then
			descript= "not found expect object ["&UIName&"]"
		Else
			c_DEBUG = "error"
			iRet = False
			descript= "found expect object ["&UIName&"]"
		End If	
	Else		
		c_DEBUG = "error"
		descript= "invalid input value"	
		Environment("TS_ErrorFound")=1
	End If
	
	call logging(descript,c_DEBUG,3)	
	
	Set objTestObject = Nothing
	
	WB_WaitUntilNotFindObj = StampStatusToReport (sModule,iRet,Activity,descript,UIName,strValueToEnter,ExpectedResult)
	  
End Function

'**********************************************************************************************************************************
'*  Function Name : WB_WaitUntilValueChange
'*  Purpose:        wait until value in object change 
'*  Arguments:      strValueToEnter,UIName,ExpectedResult
'* 	Return Value:   Flag True or False
'* 	Author By		ANUPOL H. (AMS-GABLE)
'************************************************************************************************************************
Function WB_WaitUntilValueChange(strValueToEnter,UIName,ExpectedResult)
	On Error Resume Next
	Activity = "wait until value in object change " 
	Const sModule = "WB_WaitUntilValueChange"
  	call logging("sModule " & sMODULE,c_DEBUG,3)
  	iRet = False
  	If instr(strValueToEnter,";")>0 Then
  		SplitVar = split(strValueToEnter,";")
  		waittime = trim(SplitVar(0)) 
  		compare_value = trim(SplitVar(1)) 
  		
		set objTestObject = Create_OR_Object(UIName)

		If lcase(objTestObject.GetROproperty("micclass")) = "webedit" or lcase(objTestObject.GetROproperty("micclass")) = "webbutton" Then
		  	RoProperty="value"
		Else
			RoProperty="innertext"
  		End if
		
		Set PopupObject = CreateObject("WScript.Shell")
		
		call logging("current time :" &time(),c_DEBUG,3)
		expect_time = DateAdd("s",waittime,time())
		call logging("expect time :" &expect_time,c_DEBUG,3)
		
		For wait_second = 1 To waittime Step 1
		
			objTestObject.RefreshObject()						
			PopupAlert sModule,"Wait Remain "&DateDiff("s",time(),expect_time) &" second",""	
			call logging("wait time "&DateDiff("s",time(),expect_time) &" second",c_DEBUG,3)

			If DateDiff("s",time(),expect_time) <=0 Then
				Exit for
			Else			
				If lcase(compare_value) <> "yes" Then			
					getobj_value = trim(objTestObject.GetRoProperty(RoProperty))
					If lcase(compare_value) <> lcase(getobj_value) Then
						iRet = True
						Exit For
					End If
				Else
					If wait_second = 1 Then
						compare_value = trim(objTestObject.GetRoProperty(RoProperty))
					Else
						getobj_value = trim(objTestObject.GetRoProperty(RoProperty))
						If lcase(compare_value) <> lcase(getvalue_obj) Then
							iRet = True
							Exit For
						End If					
					End If
				End If
				wait 1
			End If
		Next
		
		Set PopupObject = Nothing
		
		If iRet = True Then
			descript= "compare value ["&compare_value&"] in object "&UIName&" change to ["&getobj_value&"]"	
		Else
			c_DEBUG = "error"
			descript= "compare value ["&compare_value&"] in object "&UIName&" not change"	
		End If

  	Else		
  		c_DEBUG = "error"
		descript= "invalid input value"	
		Environment("TS_ErrorFound")=1
	End If
	
	call logging(descript,c_DEBUG,3)	
	
	Set objTestObject = Nothing
  	
  	WB_WaitUntilValueChange = StampStatusToReport (sModule,iRet,Activity,descript,UIName,strValueToEnter,ExpectedResult)
  	
End Function


'************************************************************************************************************************
'*  Function Name : WB_CheckProperty
'*  Purpose:        To compare text on Excel data and App property value is match 
'*  Arguments:      strValueToEnter,UIName,ExpectedResult
'* 	Return Value:   Flag True or False
'* 	Author By		ANUPOL H. (AMS-GABLE)
'************************************************************************************************************************
Function WB_CheckProperty(strValueToEnter,UIName,ExpectedResult)
	On Error Resume Next
    Const sModule = "WB_CheckProperty"
    call logging("sModule " & sMODULE,c_DEBUG,2)
	Activity = "check property value"
	
	iRet=False
	If instr(strValueToEnter,";") > 0 Then
		SplitVar = split(strValueToEnter,";")
		PropertyType = trim(SplitVar(0))
		InputText = trim(SplitVar(1))
		
		set objTestObject = Create_OR_Object(UIName)
		
		'Check Object Exist
		Flag = CheckObjectExist(objTestObject,"")
	
		If Flag=1 Then
			
			GetProperty_Value = trim(objTestObject.GetROProperty(PropertyType))
			If GetProperty_Value = InputText and GetProperty_Value <> "" Then
				iRet = True
			End If			
	  		  				
			'Check Error Before Input Text
'			iRet = CheckError()
			If iRet = True Then		
				descript ="Excel Data : <b>["&InputText&"]</b> match app property value : <b>["&GetProperty_Value&"]</b>"
				call logging("Excel Data : ["&InputText&"] match app property value : ["&GetProperty_Value&"]",c_DEBUG,2)
			Else
				c_DEBUG = "error"
				descript ="Excel Data : <b>["&InputText&"]</b> not match app property value : <b>["&GetProperty_Value&"]</b>"
				call logging("Excel Data : ["&InputText&"] not match app property value : ["&GetProperty_Value&"]",c_DEBUG,2)
			End If 
		Else
			c_DEBUG = "error"
			Environment("TS_ErrorFound") = 1
			Environment("TS_ErrorDescption") = "Not Found Object ["&UIName&"]" 
	  		descript = Environment("TS_ErrorDescption")
			iRet=False
		End If
	
	Else
		c_DEBUG = "error"
		descript= "invalid input value"	
		Environment("TS_ErrorFound")=1
		call logging(descript,c_DEBUG,3)
	End If
	
	set objTestObject = Nothing	
	WB_CheckProperty = StampStatusToReport (sModule,iRet,Activity,descript,UIName,strValueToEnter,ExpectedResult)		

End Function

'************************************************************************************************************************
'*  Function Name : WB_CheckTextLength
'*  Purpose:        To compare text on Excel data and App property value is match 
'*  Arguments:      strValueToEnter,UIName,ExpectedResult
'* 	Return Value:   Flag True or False
'* 	Author By		ANUPOL H. (AMS-GABLE)
'************************************************************************************************************************
Function WB_CheckTextLength(strValueToEnter,UIName,ExpectedResult)
	On Error Resume Next
    Const sModule = "WB_CheckTextLength"
    call logging("sModule " & sMODULE,c_DEBUG,2)
    
	set objTestObject = Create_OR_Object(UIName)

	'Check Object Exist
	Flag = CheckObjectExist(objTestObject,"")
    
   	If Flag=1 Then

		If lcase(objTestObject.GetROproperty("micclass")) = "webedit" or lcase(objTestObject.GetROproperty("micclass")) = "webbutton" Then
		  	RoProperty="value"
		Else
			RoProperty="innertext"
  		End if
  		
		GetProperty_Value = trim(objTestObject.GetROProperty(RoProperty))
		GetTextLength = len(GetProperty_Value)
		objTestObject.Highlight
		
		If InStr(lcase(strValueToEnter), "less") = 0 and InStr(lcase(strValueToEnter), "more") = 0 Then
			If cint(GetTextLength) = cint(trim(strValueToEnter)) Then
				iRet = True
				descript = GetProperty_Value&" length ["&GetTextLength&"] is match input value ["&strValueToEnter&"]"
			Else
				c_DEBUG = "error"
				iRet = False
				descript = GetProperty_Value&" length ["&GetTextLength&"] is not match input value ["&strValueToEnter&"]"
			End If
		Else
			Set regCompare = New RegExp
			regCompare.IgnoreCase =True
			regCompare.Pattern    = "(?=.)([+-]?(0|([1-9](\d*|\d{0,2}(,\d{3})*)))?(\.([0-9]+))?)"
			regCompare.Global = True
			Set matches = regCompare.Execute(strValueToEnter)
			If matches.count > 0 Then
				For Each getMatchStr In matches
				    newstr = newstr  & getMatchStr.Value
				Next
				       	
				If InStr(1,strValueToEnter, "less",vbTextCompare) > 0  Then
					If cint(newstr) > cint(GetTextLength) Then
					    iRet = True
					    descript = GetProperty_Value&" length ["&GetTextLength&"] is less than input value ["&newstr&"]"
					Else
					    iRet = False
					     descript = GetProperty_Value&" length ["&GetTextLength&"] is more than input value ["&newstr&"]"					    
					End If
				Else
					If cint(newstr) < cint(GetTextLength) Then
					     iRet = True
					     descript = GetProperty_Value&" length ["&GetTextLength&"] is more than input value ["&newstr&"]"	
					Else
					     iRet = False
					     descript = GetProperty_Value&" length ["&GetTextLength&"] is less than input value ["&newstr&"]"	
					End If  	
				End If
				Set regCompare = Nothing
			Else
				c_DEBUG = "error"
				iRet = False
				descript= "invalid input value"	
				Environment("TS_ErrorFound")=1			
			End If
		End If		
	Else
			c_DEBUG = "error"
			Environment("TS_ErrorFound") = 1
			Environment("TS_ErrorDescption") = "Not Found Object ["&UIName&"]" 
	  		descript = Environment("TS_ErrorDescption")
			iRet=False
	End If 
	
	set objTestObject = Nothing
    call logging(descript,c_DEBUG,3)
    WB_CheckTextLength = StampStatusToReport (sModule,iRet,Activity,descript,UIName,strValueToEnter,ExpectedResult)	
    
End Function

'**********************************************************************************************************************************
'*  Function Name : WB_CompareTextContain()
'*  Purpose:        To compare some text in Excel data contain in app label  (ignore case) 
'*  Arguments:      strValueToEnter,UIName,ExpectedResult
'* 	Return Value:   Flag True or False
'* 	Author By		ANUPOL H. (AMS-GABLE)
'**********************************************************************************************************************************
Function WB_CompareTextContain(strValueToEnter,UIName,ExpectedResult)
	Activity = "compare text contain"
	Const sModule = "WB_CompareTextContain"
  	call logging("sModule " & sMODULE,c_DEBUG,3)
  	
	set objTestObject = Create_OR_Object(UIName)
		
	Flag = CheckObjectExist(objTestObject,"")
		
	If Flag=1 Then
		strValueToEnter =trim(strValueToEnter)
		ROProperty="innertext"							
		get_text = trim(objTestObject.GetROProperty(ROProperty))
		
		If Instr(1,get_text,strValueToEnter,1) > 0 then
			iRet = True
			descript = "found <b>["&strValueToEnter&"]</b> contain in <b>"&get_text&"</b>"
			call logging("found ["&strValueToEnter&"] contain in "&get_text,c_DEBUG,3) 
		Else
			c_DEBUG = "error"
			iRet = False
			descript = "<font color=red>not found</font> <b>["&strValueToEnter&"]</b> contain in <b>"&get_text&"</b>"
			call logging("not found ["&strValueToEnter&"] contain in "&get_text,c_DEBUG,3)  	
		End if	
	Else
		c_DEBUG = "error"
		iRet = False
		descript="not found object ["&UIName&"]"
		call logging(descript,c_DEBUG,2)
	End If
	
	set objTestObject = Nothing
	WB_CompareTextContain = StampStatusToReport (sModule,iRet,Activity,descript,UIName,strValueToEnter,ExpectedResult)
	
End Function 

'**********************************************************************************************************************************
'*  Function Name : WB_HighlightObj()
'*  Purpose:        To highlight object 
'*  Arguments:      strValueToEnter,UIName,ExpectedResult
'* 	Return Value:   Flag True or False
'* 	Author By		ANUPOL H. (AMS-GABLE)
'**********************************************************************************************************************************
Function WB_HighlightObj(strValueToEnter,UIName,ExpectedResult)
	On Error Resume Next
	Activity = "highlight object"
	Const sModule = "WB_HighlightObj"
  	call logging("sModule " & sMODULE,c_DEBUG,3)
  	
	set objTestObject = Create_OR_Object(UIName)

	If lcase(trim(strValueToEnter)) <> "yes" Then
		objTestObject.SetToProperty "text",strValueToEnter
	End If
		
	Flag = CheckObjectExist(objTestObject,"")
		
	If Flag=1 Then	
		objTestObject.Highlight
		iRet = CheckError()
		If iRet = True Then
			descript = "Highlight ["& UIName & "] completely"
		Else
			c_DEBUG = "error"
			descript = Environment("TS_ErrorDescption")
		End If 			
	Else
		c_DEBUG = "error"
		iRet = False
		descript="not found object ["&UIName&"]"
	End If
	
	call logging(descript,c_DEBUG,3)
	set objTestObject = Nothing
	WB_HighlightObj = StampStatusToReport (sModule,iRet,Activity,descript,UIName,strValueToEnter,ExpectedResult)
	
End Function

Function WB_ScrollHighlightObj(strValueToEnter,UIName,ExpectedResult)
	On Error Resume Next
	Activity = "ScrollHighlightObj"
	Const sModule = "WB_ScrollHighlightObj"
  	call logging("sModule " & sMODULE,c_DEBUG,3)
  	
	set objTestObject = Create_OR_Object(UIName)

	If lcase(trim(strValueToEnter)) <> "yes" Then
		objTestObject.SetToProperty "text",strValueToEnter
	End If
		
	Flag = CheckObjectExist(objTestObject,"")
		
	If Flag=1 Then	
		objTestObject.object.scrollIntoView
		objTestObject.Highlight
		iRet = CheckError()
		If iRet = True Then
			descript = "Highlight ["& UIName & "] completely"
		Else
			c_DEBUG = "error"
			descript = Environment("TS_ErrorDescption")
		End If 			
	Else
		c_DEBUG = "error"
		iRet = False
		descript="not found object ["&UIName&"]"
	End If
	
	call logging(descript,c_DEBUG,3)
	set objTestObject = Nothing
	WB_ScrollHighlightObj = StampStatusToReport (sModule,iRet,Activity,descript,UIName,strValueToEnter,ExpectedResult)
	
End Function

