﻿PYM_DRCDT_TC001,FAIL,makone9241,4050910097,405-091009-7,4050910186,CenterOneAutoPayment20183296454,116.25,405-091018-6 ; 405-091009-7 ; 116.25 ; Success,29/03/2018,-116.25,EN
PYM_DRCDT_TC002,FAIL,makone9241,4050910097,405-091009-7,4050910186,CenterOneAutoPayment201832961538,116.79,405-091018-6 ; 405-091009-7 ; 116.79 ; Success,29/03/2018,-116.79,EN
PYM_DRCDT_TC003,FAIL,makone9241,4050910097,405-091009-7,4050910186,CenterOneAutoPayment201832962621,119.43,405-091018-6 ; 405-091009-7 ; 119.43 ; Success,29/03/2018,-119.43,EN
PYM_DRCDT_TC004,FAIL,makone9241,4050910097,405-091009-7,4050910186,CenterOneAutoPayment201832963721,116.29,405-091018-6 ; 405-091009-7 ; 116.29 ; Success,29/03/2018,-116.29,EN
PYM_DRCDT_TC005,FAIL,makone9241,4050910097,405-091009-7,4680400886,CenterOneAutoPayment20183296483,113.79,468-040088-6 ; 405-091009-7 ; 113.79 ; Success,29/03/2018,-113.79,EN
PYM_DRCDT_TC006,FAIL,makone9241,4050910097,405-091009-7,4680400886,CenterOneAutoPayment201832965843,117.22,468-040088-6 ; 405-091009-7 ; 117.22 ; Success,29/03/2018,-117.22,EN
PYM_DRCDT_TC007,FAIL,makone9241,4050910097,405-091009-7,4680400886,CenterOneAutoPayment20183297923,118.17,468-040088-6 ; 405-091009-7 ; 118.17 ; Success,29/03/2018,-118.17,EN
PYM_DRCDT_TC008,FAIL,makone9241,4050910097,405-091009-7,4680400886,CenterOneAutoPayment20183297209,111.18,468-040088-6 ; 405-091009-7 ; 111.18 ; Success,29/03/2018,-111.18,EN
PYM_DRCDT_TC009,FAIL,makone9241,4680400797,468-040079-7,4680400886,CenterOneAutoPayment2018329103637,112.71,468-040088-6 ; 468-040079-7 ; 112.71 ; Success,29/03/2018,-112.71,EN
PYM_DRCDT_TC010,FAIL,makone9241,4680400797,468-040079-7,4680400886,CenterOneAutoPayment20183299413,119.27,468-040088-6 ; 468-040079-7 ; 119.27 ; Success,29/03/2018,-119.27,EN
PYM_DRCDT_TC011,FAIL,makone9241,4680400797,468-040079-7,4680400886,CenterOneAutoPayment201832995151,119.64,468-040088-6 ; 468-040079-7 ; 119.64 ; Success,29/03/2018,-119.64,EN
PYM_DRCDT_TC012,FAIL,makone9241,4680400797,468-040079-7,4680400886,CenterOneAutoPayment2018329105415,118.64,468-040088-6 ; 468-040079-7 ; 118.64 ; Success,29/03/2018,-118.64,EN
PYM_DRCDT_TC013,FAIL,makone9241,4680400797,468-040079-7,4680400886,CenterOneAutoPayment201832911447,117.40,468-040088-6 ; 468-040079-7 ; 117.40 ; Success,29/03/2018,-117.40,EN
PYM_DRCDT_TC014,FAIL,makone9241,4680400797,468-040079-7,4680400886,CenterOneAutoPayment201832911111,115.59,468-040088-6 ; 468-040079-7 ; 115.59 ; Success,29/03/2018,-115.59,EN
PYM_DRCDT_TC015,FAIL,makone9241,4680400797,468-040079-7,4680400886,CenterOneAutoPayment2018329112219,114.38,468-040088-6; 468-040079-7; 114.38; Success,29/03/2018,-114.38,EN
PYM_DRCDT_TC016,FAIL,makone9241,4680400797,468-040079-7,4680400886,CenterOneAutoPayment2018329113014,117.75,468-040088-6; 468-040079-7; 117.75; Success,29/03/2018,-117.75,EN
PYM_DRCDT_TC017,FAIL,makone9241,4680400797,468-040079-7,4680400886,CenterOneAutoPayment2018329114051,113.38,468-040088-6; 468-040079-7; 113.38; Success,29/03/2018,-113.38,EN
PYM_DRCDT_TC018,FAIL,makone9241,4680400797,468-040079-7,4680400886,CenterOneAutoPayment2018329114653,113.13,468-040088-6; 468-040079-7; 113.13; Success,29/03/2018,-113.13,EN
PYM_DRCDT_TC019,FAIL,makone9241,4680400797,468-040079-7,4680400886,CenterOneAutoPayment2018329115233,115.55,468-040088-6; 468-040079-7; 115.55; Success,29/03/2018,-115.55,EN
PYM_DRCDT_TC020,FAIL,makone9241,4680400797,468-040079-7,4680400886,CenterOneAutoPayment2018329135550,113.75,468-040088-6; 468-040079-7; 113.75; Success,29/03/2018,-113.75,EN
PYM_DRCDT_TC021,FAIL,makone9241,4680400797,468-040079-7,4050910186,CenterOneAutoPayment2018329121642,119.75,405-091018-6; 468-040079-7; 119.75; Success,29/03/2018,-119.75,EN
PYM_DRCDT_TC022,FAIL,makone9241,4680400797,468-040079-7,4050910186,CenterOneAutoPayment2018329122718,119.76,405-091018-6; 468-040079-7; 119.76; Success,29/03/2018,-119.76,EN
PYM_DRCDT_TC023,FAIL,makone9241,4680400797,468-040079-7,4050910186,CenterOneAutoPayment2018329123253,119.35,405-091018-6; 468-040079-7; 119.35; Success,29/03/2018,-119.35,EN
PYM_DRCDT_TC024,FAIL,makone9241,4680400797,468-040079-7,4050910186,CenterOneAutoPayment2018329124345,116.46,405-091018-6; 468-040079-7; 116.46; Success,29/03/2018,-116.46,EN
PYM_DRCDT_TC025,FAIL,makone9241,4680400797,468-040079-7,4050910186,CenterOneAutoPayment201832912555,111.32,405-091018-6; 468-040079-7; 111.32; Success,29/03/2018,-111.32,EN
PYM_DRCDT_TC026,FAIL,makone9241,4680400797,468-040079-7,4050910186,CenterOneAutoPayment201832913430,118.84,405-091018-6 ; 468-040079-7 ; 118.84 ; Success,29/03/2018,-118.84,EN
PYM_DRCDT_TC027,FAIL,makone9241,4680400797,468-040079-7,4050910186,CenterOneAutoPayment2018329131538,114.50,405-091018-6 ; 468-040079-7 ; 114.50 ; Success,29/03/2018,-114.50,EN
PYM_DRCDT_TC028,FAIL,makone9241,4680400797,468-040079-7,4050910186,CenterOneAutoPayment2018329132543,113.43,405-091018-6 ; 468-040079-7 ; 113.43 ; Success,29/03/2018,-113.43,EN
PYM_DRCDT_TC029,FAIL,makone9241,4680400797,468-040079-7,4050910186,CenterOneAutoPayment2018329141351,118.44,405-091018-6 ; 468-040079-7 ; 118.44 ; Success,29/03/2018,-118.44,EN
PYM_DRCDT_TC030,FAIL,makone9241,4050910097,405-091009-7,4050910186,CenterOneAutoPayment201832914274,116.89,405-091018-6 ; 405-091009-7 ; 116.89 ; Success,29/03/2018,-116.89,EN
PYM_DRCDT_TC031,FAIL,makone9241,4050910097,405-091009-7,4050910186,CenterOneAutoPayment2018329143458,111.76,405-091018-6 ; 405-091009-7 ; 111.76 ; Success,29/03/2018,-111.76,EN
PYM_DRCDT_TC032,FAIL,makone9241,4050910097,405-091009-7,4050910186,CenterOneAutoPayment201832914440,119.52,405-091018-6 ; 405-091009-7 ; 119.52 ; Success,29/03/2018,-119.52,EN
PYM_DRCDT_TC033,FAIL,makone9241,4050910097,405-091009-7,4050910186,CenterOneAutoPayment2018329145215,111.95,405-091018-6 ; 405-091009-7 ; 111.95 ; Success,29/03/2018,-111.95,EN
PYM_DRCDT_TC034,FAIL,makone9241,4050910097,405-091009-7,4050910186,CenterOneAutoPayment20183291525,111.68,405-091018-6 ; 405-091009-7 ; 111.68 ; Success,29/03/2018,-111.68,EN
PYM_DRCDT_TC035,FAIL,makone9241,4050910097,405-091009-7,4050910186,CenterOneAutoPayment2018329151217,112.04,405-091018-6 ; 405-091009-7 ; 112.04 ; Success,29/03/2018,-112.04,EN
PYM_DRCDT_TC036,FAIL,makone9241,4050910097,405-091009-7,4050910186,CenterOneAutoPayment2018329152350,112.05,405-091018-6 ; 405-091009-7 ; 112.05 ; Success,29/03/2018,-112.05,EN
PYM_DRCDT_TC037,FAIL,makone9241,4050910097,405-091009-7,4050910186,CenterOneAutoPayment2018329153511,116.84,405-091018-6 ; 405-091009-7 ; 116.84 ; Success,29/03/2018,-116.84,EN
PYM_DRCDT_TC038,FAIL,makone9241,4050910097,405-091009-7,4050910186,CenterOneAutoPayment2018329154150,112.00,405-091018-6 ; 405-091009-7 ; 112.00 ; Success,29/03/2018,-112.00,EN
PYM_DRCDT_TC039,FAIL,makone9241,4050910097,405-091009-7,4680400886,CenterOneAutoPayment2018329155139,112.73,468-040088-6 ; 405-091009-7 ; 112.73 ; Success,29/03/2018,-112.73,EN
PYM_DRCDT_TC041,FAIL,makone9241,4050910097,405-091009-7,4680400886,CenterOneAutoPayment2018329161517,119.79,468-040088-6 ; 405-091009-7 ; 119.79 ; Success,29/03/2018,-119.79,EN
