﻿PYM_PMPTPY_RLTM_TC003,FAIL,maktwo0975,4050910102,405-091010-2,<NOT FOUND>,CenterTwoAutoPayment201833162036,129.17, ; 405-091010-2 ; 129.17 ; Success,31/03/2018,-129.17,EN
PYM_PMPTPY_RLTM_TC016,FAIL,maktwo0975,4050910102,405-091010-2,<NOT FOUND>,CenterTwoAutoPayment20183317399,129.11, ; 405-091010-2 ; 129.11 ; Success,31/03/2018,-129.11,EN
PYM_PMPTPY_RLTM_TC023,FAIL,maknin6354,4051136387,405-113638-7,<NOT FOUND>,CenterNineAutoPayment201844115155,196.66,; 405-113638-7; 196.66; Success,04/04/2018,-196.66,EN
PYM_PMPTPY_RLTM_TC025,FAIL,supnin5637,4051136387,405-113638-7,<NOT FOUND>,CenterNineAutoPayment20184512628,198.26,; 405-113638-7; 198.26; Success,05/04/2018,-198.26,EN
PYM_PMPTPY_RLTM_TC027,FAIL,maktwo0975,4050910102,405-091010-2,<NOT FOUND>,CenterTwoAutoPayment201833191928,128.98, ; 405-091010-2 ; 128.98 ; Success,31/03/2018,-128.98,EN
PYM_PMPTPY_RLTM_TC036,FAIL,maktwo0975,4050910102,405-091010-2,<NOT FOUND>,CenterTwoAutoPayment201833111611,129.02, ; 405-091010-2 ; 129.02 ; Success,31/03/2018,-129.02,EN
PYM_PMPTPY_RLTM_TC045,FAIL,maktwo0975,4050910102,405-091010-2,<NOT FOUND>,CenterTwoAutoPayment2018331125857,128.58, ; 405-091010-2 ; 128.58 ; Success,31/03/2018,-128.58,EN
PYM_PMPTPY_RLTM_TC055,FAIL,maktwo0975,4050910102,405-091010-2,<NOT FOUND>,CenterTwoAutoPayment2018331144658,129.39,;405-091010-2;129.39; Success,31/03/2018,-129.39,EN
