﻿PYM_PMPTPY_SMDY_TC001,FAIL,makone9241,4050910097,405-091009-7,<NOT FOUND>,CenterOneAutoPayment2018456445,116.45, ; 405-091009-7 ; 116.45 ; Success,05/04/2018,-116.45,EN
PYM_PMPTPY_SMDY_TC003,FAIL,makone9241,4050910097,405-091009-7,<NOT FOUND>,CenterOneAutoPayment20184561539,119.71, ; 405-091009-7 ; 119.71 ; Success,05/04/2018,-119.71,EN
PYM_PMPTPY_SMDY_TC004,FAIL,makone9241,4050910097,405-091009-7,<NOT FOUND>,CenterOneAutoPayment20184562625,111.28, ; 405-091009-7 ; 111.28 ; Success,05/04/2018,-111.28,EN
PYM_PMPTPY_SMDY_TC006,FAIL,makone9241,4050910097,405-091009-7,<NOT FOUND>,CenterOneAutoPayment20184563725,115.3, ; 405-091009-7 ; 115.30 ; Success,05/04/2018,-115.30,EN
PYM_PMPTPY_SMDY_TC011,FAIL,makone9241,4050910097,405-091009-7,<NOT FOUND>,CenterOneAutoPayment20184564935,112.22, ; 405-091009-7 ; 112.22 ; Success,05/04/2018,-112.22,EN
PYM_PMPTPY_SMDY_TC012,FAIL,makone9241,4050910097,405-091009-7,<NOT FOUND>,CenterOneAutoPayment2018457021,115.57, ; 405-091009-7 ; 115.57 ; Success,05/04/2018,-115.57,EN
PYM_PMPTPY_SMDY_TC015,FAIL,makone9241,4050910097,405-091009-7,<NOT FOUND>,CenterOneAutoPayment20184571113,114.6, ; 405-091009-7 ; 114.60 ; Success,05/04/2018,-114.60,EN
PYM_PMPTPY_SMDY_TC016,FAIL,makone9241,4050910097,405-091009-7,<NOT FOUND>,CenterOneAutoPayment2018457227,114.40, ; 405-091009-7 ; 114.40 ; Success,05/04/2018,-114.40,EN
PYM_PMPTPY_SMDY_TC017,FAIL,makone9241,4050910097,405-091009-7,<NOT FOUND>,CenterOneAutoPayment0409060455,114.18, ; 405-091009-7 ; 114.18 ; Success,09/04/2018,-114.18,EN
PYM_PMPTPY_SMDY_TC018,FAIL,makone9241,4050910097,405-091009-7,<NOT FOUND>,CenterOneAutoPayment2018457463,118.23, ; 405-091009-7 ; 118.23 ; Success,05/04/2018,-118.23,EN
PYM_PMPTPY_SMDY_TC019,FAIL,makone9241,4050910097,405-091009-7,<NOT FOUND>,CenterOneAutoPayment0409061547,113.46, ; 405-091009-7 ; 113.46 ; Success,09/04/2018,-113.46,EN
PYM_PMPTPY_SMDY_TC021,FAIL,supsev2735,4051135690,405-113569-0,<NOT FOUND>,SuperSevenAutoPayment20180410095840,176.14, ; 405-113569-0 ; 176.14 ; Success,10/04/2018,-176.14,EN
PYM_PMPTPY_SMDY_TC022,FAIL,makone9241,4050910097,405-091009-7,<NOT FOUND>,CenterOneAutoPayment2018458412,112.29,; 405-091009-7; 112.29; Success,05/04/2018,-112.29,EN
PYM_PMPTPY_SMDY_TC023,FAIL,makone9241,4050910097,405-091009-7,<NOT FOUND>,CenterOneAutoPayment20184581511,119.51,; 405-091009-7; 119.51; Success,05/04/2018,-119.51,EN
PYM_PMPTPY_SMDY_TC024,FAIL,makone9241,4050910097,405-091009-7,<NOT FOUND>,CenterOneAutoPayment20184582558,113.71,; 405-091009-7; 113.71; Success,05/04/2018,-113.71,EN
PYM_PMPTPY_SMDY_TC027,FAIL,makone9241,4050910097,405-091009-7,<NOT FOUND>,CenterOneAutoPayment20180410100105,119.47,; 405-091009-7; 119.47; Success,10/04/2018,-119.47,EN
PYM_PMPTPY_SMDY_TC028,FAIL,makone9241,4050910097,405-091009-7,<NOT FOUND>,CenterOneAutoPayment20184585355,117.16,; 405-091009-7; 117.16; Success,05/04/2018,-117.16,EN
PYM_PMPTPY_SMDY_TC029,FAIL,makone9241,4050910097,405-091009-7,<NOT FOUND>,CenterOneAutoPayment2018459021,115.29,; 405-091009-7; 115.29; Success,05/04/2018,-115.29,EN
PYM_PMPTPY_SMDY_TC030,FAIL,makone9241,4050910097,405-091009-7,<NOT FOUND>,CenterOneAutoPayment20184591136,116.17,; 405-091009-7; 116.17; Success,05/04/2018,-116.17,EN
PYM_PMPTPY_SMDY_TC031,FAIL,makone9241,4050910097,405-091009-7,<NOT FOUND>,CenterOneAutoPayment2018459202,116.15,; 405-091009-7; 116.15; Success,05/04/2018,-116.15,EN
PYM_PMPTPY_SMDY_TC032,FAIL,makone9241,4050910097,405-091009-7,<NOT FOUND>,CenterOneAutoPayment20184592737,112.49, ; 405-091009-7 ; 112.49 ; Success,05/04/2018,-112.49,EN
PYM_PMPTPY_SMDY_TC033,FAIL,makone9241,4050910097,405-091009-7,<NOT FOUND>,CenterOneAutoPayment20184593348,115.68, ; 405-091009-7 ; 115.68 ; Success,05/04/2018,-115.68,EN
PYM_PMPTPY_SMDY_TC034,FAIL,makone9241,4050910097,405-091009-7,<NOT FOUND>,CenterOneAutoPayment2018459403,119.45, ; 405-091009-7 ; 119.45 ; Success,05/04/2018,-119.45,EN
PYM_PMPTPY_SMDY_TC035,FAIL,makone9241,4050910097,405-091009-7,<NOT FOUND>,CenterOneAutoPayment0409063826,113.81, ; 405-091009-7 ; 113.81 ; Success,09/04/2018,-113.81,EN
PYM_PMPTPY_SMDY_TC036,FAIL,makone9241,4050910097,405-091009-7,<NOT FOUND>,CenterOneAutoPayment20184595952,118.54, ; 405-091009-7 ; 118.54 ; Success,05/04/2018,-118.54,EN
PYM_PMPTPY_SMDY_TC037,FAIL,makone9241,4050910097,405-091009-7,<NOT FOUND>,CenterOneAutoPayment201845101034,115.68, ; 405-091009-7 ; 115.68 ; Success,05/04/2018,-115.68,EN
PYM_PMPTPY_SMDY_TC038,FAIL,makone9241,4050910097,405-091009-7,<NOT FOUND>,CenterOneAutoPayment20184510211,112.04, ; 405-091009-7 ; 112.04 ; Success,05/04/2018,-112.04,EN
PYM_PMPTPY_SMDY_TC039,FAIL,makone9241,4050910097,405-091009-7,<NOT FOUND>,CenterOneAutoPayment201845103129,114.49, ; 405-091009-7 ; 114.49 ; Success,05/04/2018,-114.49,EN
PYM_PMPTPY_SMDY_TC040,FAIL,makone9241,4050910097,405-091009-7,<NOT FOUND>,CenterOneAutoPayment20184510429,118.48, ; 405-091009-7 ; 118.48 ; Success,05/04/2018,-118.48,EN
PYM_PMPTPY_SMDY_TC041,FAIL,makone9241,4050910097,405-091009-7,<NOT FOUND>,CenterOneAutoPayment201845105139,115.57, ; 405-091009-7 ; 115.57 ; Success,05/04/2018,-115.57,EN
PYM_PMPTPY_SMDY_TC042,FAIL,makone9241,4050910097,405-091009-7,<NOT FOUND>,CenterOneAutoPayment0409064953,117.31, ; 405-091009-7 ; 117.31 ; Success,09/04/2018,-117.31,EN
PYM_PMPTPY_SMDY_TC043,FAIL,makone9241,4050910097,405-091009-7,<NOT FOUND>,CenterOneAutoPayment0409070125,111.81, ; 405-091009-7 ; 111.81 ; Success,09/04/2018,-111.81,EN
PYM_PMPTPY_SMDY_TC046,FAIL,makone9241,4050910097,405-091009-7,<NOT FOUND>,CenterOneAutoPayment0409073736,119.31, ; 405-091009-7 ; 119.31 ; Success,09/04/2018,-119.31,EN
PYM_PMPTPY_SMDY_TC047,FAIL,makone9241,4050910097,405-091009-7,<NOT FOUND>,CenterOneAutoPayment0409074932,112.46, ; 405-091009-7 ; 112.46 ; Success,09/04/2018,-112.46,EN
PYM_PMPTPY_SMDY_TC048,FAIL,makone9241,4050910097,405-091009-7,<NOT FOUND>,CenterOneAutoPayment0409080127,119.28, ; 405-091009-7 ; 119.28 ; Success,09/04/2018,-119.28,EN
PYM_PMPTPY_SMDY_TC049,FAIL,makone9241,4050910097,405-091009-7,<NOT FOUND>,CenterOneAutoPayment0409081321,116.66, ; 405-091009-7 ; 116.66 ; Success,09/04/2018,-116.66,EN
PYM_PMPTPY_SMDY_TC050,FAIL,makone9241,4050910097,405-091009-7,<NOT FOUND>,CenterOneAutoPayment0409095522,115.77, ; 405-091009-7 ; 115.77 ; Success,09/04/2018,-115.77,EN
PYM_PMPTPY_SMDY_TC051,FAIL,makone9241,4050910097,405-091009-7,<NOT FOUND>,CenterOneAutoPayment0409091349,116.28, ; 405-091009-7 ; 116.28 ; Success,09/04/2018,-116.28,EN
PYM_PMPTPY_SMDY_TC052,FAIL,makone9241,4050910097,405-091009-7,<NOT FOUND>,CenterOneAutoPayment0409092603,113.46, ; 405-091009-7 ; 113.46 ; Success,09/04/2018,-113.46,EN
PYM_PMPTPY_SMDY_TC054,FAIL,makone9241,4050910097,405-091009-7,<NOT FOUND>,CenterOneAutoPayment0409100737,117.66, ; 405-091009-7 ; 117.66 ; Success,09/04/2018,-117.66,EN
PYM_PMPTPY_SMDY_TC055,FAIL,makone9241,4050910097,405-091009-7,<NOT FOUND>,CenterOneAutoPayment0409101857,119.75, ; 405-091009-7 ; 119.75 ; Success,09/04/2018,-119.75,EN
PYM_PMPTPY_SMDY_TC056,FAIL,makone9241,4050910097,405-091009-7,<NOT FOUND>,CenterOneAutoPayment0409103009,119.57, ; 405-091009-7 ; 119.57 ; Success,09/04/2018,-119.57,EN
