﻿PYM_SMRT_SMDY_OTH_001,FAIL,makthr8165,4050910136,405-091013-6,0012000030,CenterThreeAutoPayment2018436103,135.30,001-200003-0 ; 405-091013-6 ; 135.30 ; Success,#N/A,-135.30,TH
PYM_SMRT_SMDY_OTH_003,FAIL,makthr8165,4050910136,405-091013-6,0012000030,CenterThreeAutoPayment20184362347,136.36,001-200003-0 ; 405-091013-6 ; 136.36 ; Success,#N/A,-136.36,TH
PYM_SMRT_SMDY_OTH_004,FAIL,makthr8165,4050910136,405-091013-6,0012000030,CenterThreeAutoPayment20184363727,139.50,001-200003-0 ; 405-091013-6 ; 139.50 ; Success,#N/A,-139.50,TH
PYM_SMRT_SMDY_OTH_005,FAIL,makthr8165,4050910136,405-091013-6,0012000030,CenterThreeAutoPayment2018436519,133.36,001-200003-0 ; 405-091013-6 ; 133.36 ; Success,#N/A,-133.36,TH
PYM_SMRT_SMDY_OTH_006,FAIL,makthr8165,4050910136,405-091013-6,0012000030,CenterThreeAutoPayment2018437538,134.69,001-200003-0 ; 405-091013-6 ; 134.69 ; Success,#N/A,-134.69,TH
PYM_SMRT_SMDY_OTH_007,FAIL,makthr8165,4050910136,405-091013-6,0012000030,CenterThreeAutoPayment20184372010,136.75,001-200003-0 ; 405-091013-6 ; 136.75 ; Success,#N/A,-136.75,TH
PYM_SMRT_SMDY_OTH_008,FAIL,makthr8165,4050910136,405-091013-6,0012000030,CenterThreeAutoPayment20184373433,132.42,001-200003-0 ; 405-091013-6 ; 132.42 ; Success,#N/A,-132.42,TH
PYM_SMRT_SMDY_OTH_009,FAIL,makthr8165,4050910136,405-091013-6,0012000030,CenterThreeAutoPayment2018437497,137.50,001-200003-0 ; 405-091013-6 ; 137.50 ; Success,#N/A,-137.50,TH
PYM_SMRT_SMDY_OTH_010,FAIL,makthr8165,4050910136,405-091013-6,0012000030,CenterThreeAutoPayment2018438350,138.74,001-200003-0 ; 405-091013-6 ; 138.74 ; Success,#N/A,-138.74,TH
PYM_SMRT_SMDY_OTH_011,FAIL,makthr8165,4050910136,405-091013-6,0012000030,CenterThreeAutoPayment20184381840,135.55,001-200003-0; 405-091013-6; 135.55; Success,#N/A,-135.55,TH
PYM_SMRT_SMDY_OTH_012,FAIL,maknin6354,4051136387,405-113638-7,0090136888,CenterNineAutoPayment20184410147,197.36,009-013688-8; 405-113638-7; 197.36; Success,04/04/2018,-197.36,TH
PYM_SMRT_SMDY_OTH_017,FAIL,makthr8165,4050910136,405-091013-6,0012000030,CenterThreeAutoPayment20184394559,136.29,001-200003-0; 405-091013-6; 136.29; Success,#N/A,-136.29,TH
PYM_SMRT_SMDY_OTH_018,FAIL,makthr8165,4050910136,405-091013-6,0012000030,CenterThreeAutoPayment20184310126,138.57,001-200003-0; 405-091013-6; 138.57; Success,#N/A,-138.57,TH
PYM_SMRT_SMDY_OTH_020,FAIL,maknin6354,4051136387,405-113638-7,0090136888,CenterNineAutoPayment201844102614,197.13,009-013688-8; 405-113638-7; 197.13; Success,04/04/2018,-197.13,TH
PYM_SMRT_SMDY_OTH_021,FAIL,maknin6354,4051136387,405-113638-7,0090136888,CenterNineAutoPayment201844103658,193.41,009-013688-8; 405-113638-7; 193.41; Success,04/04/2018,-193.41,TH
PYM_SMRT_SMDY_OTH_022,FAIL,maknin6354,4051136387,405-113638-7,0090136888,CenterNineAutoPayment201844104958,194.87,009-013688-8; 405-113638-7; 194.87; Success,04/04/2018,-194.87,TH
PYM_SMRT_SMDY_OTH_023,FAIL,maknin6354,4051136387,405-113638-7,0090136888,CenterNineAutoPayment20184595143,199.28,009-013688-8; 405-113638-7; 199.28; Success,05/04/2018,-199.28,TH
PYM_SMRT_SMDY_OTH_024,FAIL,maknin6354,4051136387,405-113638-7,0090136888,CenterNineAutoPayment20184510446,193.27,009-013688-8; 405-113638-7; 193.27; Success,05/04/2018,-193.27,TH
PYM_SMRT_SMDY_OTH_025,FAIL,maknin6354,4051136387,405-113638-7,0090136888,CenterNineAutoPayment201845101711,191.46,009-013688-8; 405-113638-7; 191.46; Success,05/04/2018,-191.46,TH
PYM_SMRT_SMDY_OTH_026,FAIL,maknin6354,4051136387,405-113638-7,0090136888,CenterNineAutoPayment201845102735,192.87,009-013688-8; 405-113638-7; 192.87; Success,05/04/2018,-192.87,TH
PYM_SMRT_SMDY_OTH_027,FAIL,maknin6354,4051136387,405-113638-7,0090136888,CenterNineAutoPayment201845104036,196.67,009-013688-8; 405-113638-7; 196.67; Success,05/04/2018,-196.67,TH
PYM_SMRT_SMDY_OTH_028,FAIL,maknin6354,4051136387,405-113638-7,0090136888,CenterNineAutoPayment201845105617,193.97,009-013688-8 ; 405-113638-7 ; 193.97 ; Success,05/04/2018,-193.97,TH
PYM_SMRT_SMDY_OTH_029,FAIL,maksev0478,4051136361,405-113636-1,020000003432,CenterSevenAutoPayment0409094752,174.41,020000003432 ; 405-113636-1 ; 174.41 ; Success,09/04/2018,-174.41,TH
PYM_SMRT_SMDY_OTH_030,FAIL,maksev0478,4051136361,405-113636-1,020000003432,CenterSevenAutoPayment0409095816,175.85,020000003432 ; 405-113636-1 ; 175.85 ; Success,09/04/2018,-175.85,TH
PYM_SMRT_SMDY_OTH_032,FAIL,makfou7975,4050910152,405-091015-2,0090136888,CenterFourAutoPayment0409094328,148.93,009-013688-8 ; 405-091015-2 ; 148.93 ; Success,09/04/2018,-148.93,TH
