PYM_PMPTPY_SMDY_TC001|http://10.249.240.68/UAT/Payment-PromptPay-SameDay/CoMarch_Web_TH/PYM_PMPTPY_SMDY_TC001-004/2018-04-05-10-31-40/CoMarch_Web_TH_FAIL.html
PYM_PMPTPY_SMDY_TC003|http://10.249.240.68/UAT/Payment-PromptPay-SameDay/CoMarch_Web_TH/PYM_PMPTPY_SMDY_TC001-004/2018-04-05-10-31-40/CoMarch_Web_TH_FAIL.html
PYM_PMPTPY_SMDY_TC004|http://10.249.240.68/UAT/Payment-PromptPay-SameDay/CoMarch_Web_TH/PYM_PMPTPY_SMDY_TC001-004/2018-04-05-10-31-40/CoMarch_Web_TH_FAIL.html
PYM_PMPTPY_SMDY_TC011|http://10.249.240.68/UAT/Payment-PromptPay-SameDay/CoMarch_Web_TH/PYM_PMPTPY_SMDY_TC006-020,022-024,027-030/2018-04-09-06-01-15/CoMarch_Web_TH_FAIL.html
PYM_PMPTPY_SMDY_TC012|http://10.249.240.68/UAT/Payment-PromptPay-SameDay/CoMarch_Web_TH/PYM_PMPTPY_SMDY_TC006-020,022-024,027-030/2018-04-09-06-01-15/CoMarch_Web_TH_FAIL.html
PYM_PMPTPY_SMDY_TC015|http://10.249.240.68/UAT/Payment-PromptPay-SameDay/CoMarch_Web_TH/PYM_PMPTPY_SMDY_TC006-020,022-024,027-030/2018-04-09-06-01-15/CoMarch_Web_TH_FAIL.html
PYM_PMPTPY_SMDY_TC016|http://10.249.240.68/UAT/Payment-PromptPay-SameDay/CoMarch_Web_TH/PYM_PMPTPY_SMDY_TC006-020,022-024,027-030/2018-04-09-06-01-15/CoMarch_Web_TH_FAIL.html
PYM_PMPTPY_SMDY_TC018|http://10.249.240.68/UAT/Payment-PromptPay-SameDay/CoMarch_Web_TH/PYM_PMPTPY_SMDY_TC006-020,022-024,027-030/2018-04-09-06-01-15/CoMarch_Web_TH_FAIL.html
PYM_PMPTPY_SMDY_TC026|http://10.249.240.68/UAT/Payment-PromptPay-SameDay/CoMarch_Web_TH/PYM_PMPTPY_SMDY_TC026/2018-04-10-09-53-18/CoMarch_web_TH_FAIL.html
PYM_PMPTPY_SMDY_TC027|http://10.249.240.68/UAT/Payment-PromptPay-SameDay/CoMarch_Web_TH/PYM_PMPTPY_SMDY_TC006-020,022-024,027-030/2018-04-09-06-01-15/CoMarch_Web_TH_FAIL.html
PYM_PMPTPY_SMDY_TC028|http://10.249.240.68/UAT/Payment-PromptPay-SameDay/CoMarch_Web_TH/PYM_PMPTPY_SMDY_TC028/2018-04-05-10-41-35/CoMarch_Web_TH.html
PYM_PMPTPY_SMDY_TC029|http://10.249.240.68/UAT/Payment-PromptPay-SameDay/CoMarch_Web_TH/PYM_PMPTPY_SMDY_TC006-020,022-024,027-030/2018-04-09-06-01-15/CoMarch_Web_TH_FAIL.html
PYM_PMPTPY_SMDY_TC033|http://10.249.240.68/UAT/Payment-PromptPay-SameDay/CoMarch_Web_TH/PYM_PMPTPY_SMDY_TC032-035/2018-04-09-10-11-29/CoMarch_Web_TH_FAIL.html
PYM_PMPTPY_SMDY_TC034|http://10.249.240.68/UAT/Payment-PromptPay-SameDay/CoMarch_Web_TH/PYM_PMPTPY_SMDY_TC032-035/2018-04-09-10-11-29/CoMarch_Web_TH_FAIL.html
PYM_PMPTPY_SMDY_TC035|http://10.249.240.68/UAT/Payment-PromptPay-SameDay/CoMarch_Web_TH/PYM_PMPTPY_SMDY_TC032-035/2018-04-09-10-11-29/CoMarch_Web_TH_FAIL.html
PYM_PMPTPY_SMDY_TC036|http://10.249.240.68/UAT/Payment-PromptPay-SameDay/CoMarch_Web_TH/PYM_PMPTPY_SMDY_TC036-045,047,049-051/2018-04-09-06-09-00/CoMarch_Web_TH_FAIL.html
PYM_PMPTPY_SMDY_TC038|http://10.249.240.68/UAT/Payment-PromptPay-SameDay/CoMarch_Web_TH/PYM_PMPTPY_SMDY_TC036-045,047,049-051/2018-04-09-06-09-00/CoMarch_Web_TH_FAIL.html
PYM_PMPTPY_SMDY_TC039|http://10.249.240.68/UAT/Payment-PromptPay-SameDay/CoMarch_Web_TH/PYM_PMPTPY_SMDY_TC036-045,047,049-051/2018-04-09-06-09-00/CoMarch_Web_TH_FAIL.html
PYM_PMPTPY_SMDY_TC040|http://10.249.240.68/UAT/Payment-PromptPay-SameDay/CoMarch_Web_TH/PYM_PMPTPY_SMDY_TC036-045,047,049-051/2018-04-09-06-09-00/CoMarch_Web_TH_FAIL.html
PYM_PMPTPY_SMDY_TC041|http://10.249.240.68/UAT/Payment-PromptPay-SameDay/CoMarch_Web_TH/PYM_PMPTPY_SMDY_TC036-045,047,049-051/2018-04-09-06-09-00/CoMarch_Web_TH_FAIL.html
PYM_PMPTPY_SMDY_TC042|http://10.249.240.68/UAT/Payment-PromptPay-SameDay/CoMarch_Web_TH/PYM_PMPTPY_SMDY_TC036-045,047,049-051/2018-04-09-06-09-00/CoMarch_Web_TH_FAIL.html
PYM_PMPTPY_SMDY_TC044|http://10.249.240.68/UAT/Payment-PromptPay-SameDay/CoMarch_Web_TH/PYM_PMPTPY_SMDY_TC036-045,047,049-051/2018-04-09-06-09-00/CoMarch_Web_TH_FAIL.html
PYM_PMPTPY_SMDY_TC046|http://10.249.240.68/UAT/Payment-PromptPay-SameDay/CoMarch_Web_TH/PYM_PMPTPY_SMDY_TC046,048,052-056/2018-04-09-09-32-16/CoMarch_Web_TH_FAIL.html
PYM_PMPTPY_SMDY_TC047|http://10.249.240.68/UAT/Payment-PromptPay-SameDay/CoMarch_Web_TH/PYM_PMPTPY_SMDY_TC036-045,047,049-051/2018-04-09-06-09-00/CoMarch_Web_TH_FAIL.html
PYM_PMPTPY_SMDY_TC048|http://10.249.240.68/UAT/Payment-PromptPay-SameDay/CoMarch_Web_TH/PYM_PMPTPY_SMDY_TC046,048,052-056/2018-04-09-09-32-16/CoMarch_Web_TH_FAIL.html
PYM_PMPTPY_SMDY_TC049|http://10.249.240.68/UAT/Payment-PromptPay-SameDay/CoMarch_Web_TH/PYM_PMPTPY_SMDY_TC036-045,047,049-051/2018-04-09-06-09-00/CoMarch_Web_TH_FAIL.html
PYM_PMPTPY_SMDY_TC051|http://10.249.240.68/UAT/Payment-PromptPay-SameDay/CoMarch_Web_TH/PYM_PMPTPY_SMDY_TC036-045,047,049-051/2018-04-09-06-09-00/CoMarch_Web_TH_FAIL.html
PYM_PMPTPY_SMDY_TC052|http://10.249.240.68/UAT/Payment-PromptPay-SameDay/CoMarch_Web_TH/PYM_PMPTPY_SMDY_TC046,048,052-056/2018-04-09-09-32-16/CoMarch_Web_TH_FAIL.html
PYM_PMPTPY_SMDY_TC053|http://10.249.240.68/UAT/Payment-PromptPay-SameDay/CoMarch_Web_TH/PYM_PMPTPY_SMDY_TC046,048,052-056/2018-04-09-09-32-16/CoMarch_Web_TH_FAIL.html
PYM_PMPTPY_SMDY_TC054|http://10.249.240.68/UAT/Payment-PromptPay-SameDay/CoMarch_Web_TH/PYM_PMPTPY_SMDY_TC046,048,052-056/2018-04-09-09-32-16/CoMarch_Web_TH_FAIL.html
PYM_PMPTPY_SMDY_TC055|http://10.249.240.68/UAT/Payment-PromptPay-SameDay/CoMarch_Web_TH/PYM_PMPTPY_SMDY_TC046,048,052-056/2018-04-09-09-32-16/CoMarch_Web_TH_FAIL.html
PYM_PMPTPY_SMDY_TC056|http://10.249.240.68/UAT/Payment-PromptPay-SameDay/CoMarch_Web_TH/PYM_PMPTPY_SMDY_TC046,048,052-056/2018-04-09-09-32-16/CoMarch_Web_TH_FAIL.html
