﻿PYRL_DRCDT_MGT_001,FAIL,makfiv3573,4050910178,405-091017-8,4680400925,CenterFiveAutoPayment20183296315,155.41,468-040092-5 ; 405-091017-8 ; 155.41 ; Success,29/03/2018,-155.41,EN
PYRL_DRCDT_MGT_002,FAIL,makfiv3573,4050910178,405-091017-8,4680400925,CenterFiveAutoPayment201832961439,155.48,468-040092-5 ; 405-091017-8 ; 155.48 ; Success,29/03/2018,-155.48,EN
PYRL_DRCDT_MGT_006,FAIL,makfiv3573,4050910178,405-091017-8,4680400925,CenterFiveAutoPayment20183296264,156.24,468-040092-5 ; 405-091017-8 ; 156.24 ; Success,29/03/2018,-156.24,EN
PYRL_DRCDT_MGT_007,FAIL,makfiv3573,4050910178,405-091017-8,4680400925,CenterFiveAutoPayment201832963734,159.58,468-040092-5 ; 405-091017-8 ; 159.58 ; Success,29/03/2018,-159.58,EN
PYRL_DRCDT_MGT_008,FAIL,makfiv3573,4050910178,405-091017-8,4680400925,CenterFiveAutoPayment201832964857,156.59,468-040092-5 ; 405-091017-8 ; 156.59 ; Success,29/03/2018,-156.59,EN
PYRL_DRCDT_MGT_009,FAIL,makfiv3573,4050910178,405-091017-8,4680400925,CenterFiveAutoPayment20183297046,158.11,468-040092-5 ; 405-091017-8 ; 158.11 ; Success,29/03/2018,-158.11,EN
PYRL_DRCDT_MGT_010,FAIL,makfiv3573,4050910178,405-091017-8,4680400925,CenterFiveAutoPayment201832971240,159.31,468-040092-5 ; 405-091017-8 ; 159.31 ; Success,29/03/2018,-159.31,EN
PYRL_DRCDT_MGT_011,FAIL,makfiv3573,4050910178,405-091017-8,4680400925,CenterFiveAutoPayment201832972438,153.77,468-040092-5; 405-091017-8; 153.77; Success,29/03/2018,-153.77,EN
PYRL_DRCDT_MGT_012,FAIL,makfiv3573,4050910178,405-091017-8,4680400925,CenterFiveAutoPayment201832973718,157.61,468-040092-5; 405-091017-8; 157.61; Success,29/03/2018,-157.61,EN
PYRL_DRCDT_MGT_013,FAIL,makfiv3573,4050910178,405-091017-8,4680400925,CenterFiveAutoPayment201832974931,157.47,468-040092-5; 405-091017-8; 157.47; Success,29/03/2018,-157.47,EN
PYRL_DRCDT_MGT_015,FAIL,makfiv3573,4050910178,405-091017-8,4680400925,CenterFiveAutoPayment20183298610,154.34,468-040092-5; 405-091017-8; 154.34; Success,29/03/2018,-154.34,EN
PYRL_DRCDT_MGT_016,FAIL,makfiv3573,4050910178,405-091017-8,4680400925,CenterFiveAutoPayment201832981830,154.43,468-040092-5; 405-091017-8; 154.43; Success,29/03/2018,-154.43,EN
PYRL_DRCDT_MGT_017,FAIL,makfiv3573,4050910178,405-091017-8,4680400925,CenterFiveAutoPayment20183298318,151.56,468-040092-5; 405-091017-8; 151.56; Success,29/03/2018,-151.56,EN
PYRL_DRCDT_MGT_018,FAIL,makfiv3573,4050910178,405-091017-8,4680400925,CenterFiveAutoPayment201832984346,158.33,468-040092-5; 405-091017-8; 158.33; Success,29/03/2018,-158.33,EN
PYRL_DRCDT_MGT_019,FAIL,makfiv3573,4050910178,405-091017-8,4680400925,CenterFiveAutoPayment201832985612,157.76,468-040092-5; 405-091017-8; 157.76; Success,29/03/2018,-157.76,EN
PYRL_DRCDT_MGT_021,FAIL,makfiv3573,4050910178,405-091017-8,4680400925,CenterFiveAutoPayment201832991341,158.72,468-040092-5; 405-091017-8; 158.72; Success,29/03/2018,-158.72,EN
PYRL_DRCDT_MGT_028,FAIL,makfiv3573,4050910178,405-091017-8,4680400925,CenterFiveAutoPayment201832912143,155.80,468-040092-5 ; 405-091017-8 ; 155.80 ; Success,29/03/2018,-155.80,EN
PYRL_DRCDT_MGT_032,FAIL,makfiv3573,4050910178,405-091017-8,4680400925,CenterFiveAutoPayment201832914943,159.95,468-040092-5 ; 405-091017-8 ; 159.95 ; Success,29/03/2018,-159.95,EN
PYRL_DRCDT_MGT_034,FAIL,makfiv3573,4050910178,405-091017-8,4680400925,CenterFiveAutoPayment201832912492,158.95,468-040092-5 ; 405-091017-8 ; 158.95 ; Success,29/03/2018,-158.95,EN
PYRL_DRCDT_MGT_038,FAIL,makfiv3573,4050910178,405-091017-8,4680400925,CenterFiveAutoPayment2018329131740,155.61,468-040092-5 ; 405-091017-8 ; 155.61 ; Success,29/03/2018,-155.61,EN
PYRL_DRCDT_MGT_053,FAIL,makfiv3573,4050910178,405-091017-8,4680400925,CenterFiveAutoPayment201832913282,158.39,468-040092-5 ; 405-091017-8 ; 158.39 ; Success,29/03/2018,-158.39,EN
PYRL_DRCDT_MGT_054,FAIL,makfiv3573,4050910178,405-091017-8,4680400925,CenterFiveAutoPayment2018329133923,151.36,468-040092-5 ; 405-091017-8 ; 151.36 ; Success,29/03/2018,-151.36,EN
