﻿PYRL_DRCDT_OTH_008,FAIL,makfou7975,4050910152,405-091015-2,4680400917,CenterFourAutoPayment201833062011,141.38,468-040091-7 ; 405-091015-2 ; 141.38 ; Success,30/03/2018,-141.38,TH
PYRL_DRCDT_OTH_009,FAIL,makfou7975,4050910152,405-091015-2,4680400917,CenterFourAutoPayment201833063217,149.74,468-040091-7 ; 405-091015-2 ; 149.74 ; Success,30/03/2018,-149.74,TH
PYRL_DRCDT_OTH_010,FAIL,makfou7975,4050910152,405-091015-2,4680400917,CenterFourAutoPayment201833064422,144.13,468-040091-7 ; 405-091015-2 ; 144.13 ; Success,30/03/2018,-144.13,TH
PYRL_DRCDT_OTH_011,FAIL,makfou7975,4050910152,405-091015-2,4680400917,CenterFourAutoPayment201833065632,143.22,468-040091-7; 405-091015-2; 143.22; Success,30/03/2018,-143.22,TH
PYRL_DRCDT_OTH_012,FAIL,makfou7975,4050910152,405-091015-2,4680400917,CenterFourAutoPayment20183307917,147.76,468-040091-7; 405-091015-2; 147.76; Success,30/03/2018,-147.76,TH
PYRL_DRCDT_OTH_015,FAIL,makfou7975,4050910152,405-091015-2,4680400917,CenterFourAutoPayment201833074722,149.23,468-040091-7; 405-091015-2; 149.23; Success,30/03/2018,-149.23,TH
PYRL_DRCDT_OTH_016,FAIL,makfou7975,4050910152,405-091015-2,4680400917,CenterFourAutoPayment20183308012,142.35,468-040091-7; 405-091015-2; 142.35; Success,30/03/2018,-142.35,TH
PYRL_DRCDT_OTH_019,FAIL,makfou7975,4050910152,405-091015-2,4680400917,CenterFourAutoPayment201833083150,142.60,468-040091-7; 405-091015-2; 142.60; Success,30/03/2018,-142.60,TH
PYRL_DRCDT_OTH_021,FAIL,makfou7975,4050910152,405-091015-2,4680400917,CenterFourAutoPayment201833085748,147.53,468-040091-7; 405-091015-2; 147.53; Success,30/03/2018,-147.53,TH
PYRL_DRCDT_OTH_028,FAIL,makfou7975,4050910152,405-091015-2,4680400917,CenterFourAutoPayment2018330105034,149.90,468-040091-7 ; 405-091015-2 ; 149.90 ; Success,30/03/2018,-149.90,TH
PYRL_DRCDT_OTH_029,FAIL,makfou7975,4050910152,405-091015-2,4680400917,CenterFourAutoPayment201833011211,148.42,468-040091-7 ; 405-091015-2 ; 148.42 ; Success,30/03/2018,-148.42,TH
PYRL_DRCDT_OTH_030,FAIL,makfou7975,4050910152,405-091015-2,4680400917,CenterFourAutoPayment2018330111525,148.96,468-040091-7 ; 405-091015-2 ; 148.96 ; Success,30/03/2018,-148.96,TH
PYRL_DRCDT_OTH_031,FAIL,makfou7975,4050910152,405-091015-2,4680400917,CenterFourAutoPayment2018330112746,142.64,468-040091-7 ; 405-091015-2 ; 142.64 ; Success,30/03/2018,-142.64,TH
PYRL_DRCDT_OTH_032,FAIL,makfou7975,4050910152,405-091015-2,4680400917,CenterFourAutoPayment2018330114018,148.76,468-040091-7 ; 405-091015-2 ; 148.76 ; Success,30/03/2018,-148.76,TH
PYRL_DRCDT_OTH_033,FAIL,makfou7975,4050910152,405-091015-2,4680400917,CenterFourAutoPayment2018330115018,142.50,468-040091-7 ; 405-091015-2 ; 142.50 ; Success,30/03/2018,-142.50,TH
PYRL_DRCDT_OTH_034,FAIL,makfou7975,4050910152,405-091015-2,4680400917,CenterFourAutoPayment201833012021,143.44,468-040091-7 ; 405-091015-2 ; 143.44 ; Success,30/03/2018,-143.44,TH
PYRL_DRCDT_OTH_035,FAIL,makfou7975,4050910152,405-091015-2,4680400917,CenterFourAutoPayment2018330143851,147.78,468-040091-7 ; 405-091015-2 ; 147.78 ; Success,30/03/2018,-147.78,TH
PYRL_DRCDT_OTH_037,FAIL,makfou7975,4050910152,405-091015-2,4680400917,CenterFourAutoPayment201833012179,145.96,468-040091-7 ; 405-091015-2 ; 145.96 ; Success,30/03/2018,-145.96,TH
PYRL_DRCDT_OTH_038,FAIL,makfou7975,4050910152,405-091015-2,4680400917,CenterFourAutoPayment2018330122842,143.52,468-040091-7 ; 405-091015-2 ; 143.52 ; Success,30/03/2018,-143.52,TH
PYRL_DRCDT_OTH_053,FAIL,makfou7975,4050910152,405-091015-2,4680400917,CenterFourAutoPayment2018330123642,145.81,468-040091-7 ; 405-091015-2 ; 145.81 ; Success,30/03/2018,-145.81,TH
PYRL_DRCDT_OTH_054,FAIL,makfou7975,4050910152,405-091015-2,4680400917,CenterFourAutoPayment2018330124821,144.76,468-040091-7 ; 405-091015-2 ; 144.76 ; Success,30/03/2018,-144.75,TH
PYRL_DRCDT_OTH_066,FAIL,makfou7975,4050910152,405-091015-2,4680400917,CenterFourAutoPayment2018330132015,144.07,468-040091-7 ; 405-091015-2 ; 144.07 ; Success,30/03/2018,-144.07,TH
