PYM_SMRT_SMDY_MGT_001|http://10.249.240.68/UAT/Payment-Payroll-Smart-SameDay-Management/CoMarch_Web_EN/PYM_SMRT_SMDY_MGT_001-018,020-023/2018-04-04-06-03-26/CoMarch_Web_EN_FAIL.html
PYM_SMRT_SMDY_MGT_003|http://10.249.240.68/UAT/Payment-Payroll-Smart-SameDay-Management/CoMarch_Web_EN/PYM_SMRT_SMDY_MGT_001-018,020-023/2018-04-04-06-03-26/CoMarch_Web_EN_FAIL.html
PYM_SMRT_SMDY_MGT_004|http://10.249.240.68/UAT/Payment-Payroll-Smart-SameDay-Management/CoMarch_Web_EN/PYM_SMRT_SMDY_MGT_001-018,020-023/2018-04-04-06-03-26/CoMarch_Web_EN_FAIL.html
PYM_SMRT_SMDY_MGT_005|http://10.249.240.68/UAT/Payment-Payroll-Smart-SameDay-Management/CoMarch_Web_EN/PYM_SMRT_SMDY_MGT_001-018,020-023/2018-04-04-06-03-26/CoMarch_Web_EN_FAIL.html
PYM_SMRT_SMDY_MGT_006|http://10.249.240.68/UAT/Payment-Payroll-Smart-SameDay-Management/CoMarch_Web_EN/PYM_SMRT_SMDY_MGT_001-018,020-023/2018-04-04-06-03-26/CoMarch_Web_EN_FAIL.html
PYM_SMRT_SMDY_MGT_007|http://10.249.240.68/UAT/Payment-Payroll-Smart-SameDay-Management/CoMarch_Web_EN/PYM_SMRT_SMDY_MGT_001-018,020-023/2018-04-04-06-03-26/CoMarch_Web_EN_FAIL.html
PYM_SMRT_SMDY_MGT_008|http://10.249.240.68/UAT/Payment-Payroll-Smart-SameDay-Management/CoMarch_Web_EN/PYM_SMRT_SMDY_MGT_001-018,020-023/2018-04-04-06-03-26/CoMarch_Web_EN_FAIL.html
PYM_SMRT_SMDY_MGT_009|http://10.249.240.68/UAT/Payment-Payroll-Smart-SameDay-Management/CoMarch_Web_EN/PYM_SMRT_SMDY_MGT_001-018,020-023/2018-04-04-06-03-26/CoMarch_Web_EN_FAIL.html
PYM_SMRT_SMDY_MGT_010|http://10.249.240.68/UAT/Payment-Payroll-Smart-SameDay-Management/CoMarch_Web_EN/PYM_SMRT_SMDY_MGT_001-018,020-023/2018-04-04-06-03-26/CoMarch_Web_EN_FAIL.html
PYM_SMRT_SMDY_MGT_011|http://10.249.240.68/UAT/Payment-Payroll-Smart-SameDay-Management/CoMarch_Web_EN/PYM_SMRT_SMDY_MGT_001-018,020-023/2018-04-04-06-03-26/CoMarch_Web_EN_FAIL.html
PYM_SMRT_SMDY_MGT_012|http://10.249.240.68/UAT/Payment-Payroll-Smart-SameDay-Management/CoMarch_Web_EN/PYM_SMRT_SMDY_MGT_001-018,020-023/2018-04-04-06-03-26/CoMarch_Web_EN_FAIL.html
PYM_SMRT_SMDY_MGT_013|http://10.249.240.68/UAT/Payment-Payroll-Smart-SameDay-Management/CoMarch_Web_EN/PYM_SMRT_SMDY_MGT_001-018,020-023/2018-04-04-06-03-26/CoMarch_Web_EN_FAIL.html
PYM_SMRT_SMDY_MGT_014|http://10.249.240.68/UAT/Payment-Payroll-Smart-SameDay-Management/CoMarch_Web_EN/PYM_SMRT_SMDY_MGT_001-018,020-023/2018-04-04-06-03-26/CoMarch_Web_EN_FAIL.html
PYM_SMRT_SMDY_MGT_015|http://10.249.240.68/UAT/Payment-Payroll-Smart-SameDay-Management/CoMarch_Web_EN/PYM_SMRT_SMDY_MGT_001-018,020-023/2018-04-04-06-03-26/CoMarch_Web_EN_FAIL.html
PYM_SMRT_SMDY_MGT_016|http://10.249.240.68/UAT/Payment-Payroll-Smart-SameDay-Management/CoMarch_Web_EN/PYM_SMRT_SMDY_MGT_001-018,020-023/2018-04-04-06-03-26/CoMarch_Web_EN_FAIL.html
PYM_SMRT_SMDY_MGT_017|http://10.249.240.68/UAT/Payment-Payroll-Smart-SameDay-Management/CoMarch_Web_EN/PYM_SMRT_SMDY_MGT_001-018,020-023/2018-04-04-06-03-26/CoMarch_Web_EN_FAIL.html
PYM_SMRT_SMDY_MGT_018|http://10.249.240.68/UAT/Payment-Payroll-Smart-SameDay-Management/CoMarch_Web_EN/PYM_SMRT_SMDY_MGT_001-018,020-023/2018-04-04-06-03-26/CoMarch_Web_EN_FAIL.html
PYM_SMRT_SMDY_MGT_019|http://10.249.240.68/UAT/Payment-Payroll-Smart-SameDay-Management/CoMarch_Web_EN/PYM_SMRT_SMDY_MGT_019,024-032/2018-04-05-06-08-39/CoMarch_Web_EN_FAIL.html
PYM_SMRT_SMDY_MGT_020|http://10.249.240.68/UAT/Payment-Payroll-Smart-SameDay-Management/CoMarch_Web_EN/PYM_SMRT_SMDY_MGT_001-018,020-023/2018-04-04-06-03-26/CoMarch_Web_EN_FAIL.html
PYM_SMRT_SMDY_MGT_021|http://10.249.240.68/UAT/Payment-Payroll-Smart-SameDay-Management/CoMarch_Web_EN/PYM_SMRT_SMDY_MGT_001-018,020-023/2018-04-04-06-03-26/CoMarch_Web_EN_FAIL.html
PYM_SMRT_SMDY_MGT_022|http://10.249.240.68/UAT/Payment-Payroll-Smart-SameDay-Management/CoMarch_Web_EN/PYM_SMRT_SMDY_MGT_001-018,020-023/2018-04-04-06-03-26/CoMarch_Web_EN_FAIL.html
PYM_SMRT_SMDY_MGT_023|http://10.249.240.68/UAT/Payment-Payroll-Smart-SameDay-Management/CoMarch_Web_EN/PYM_SMRT_SMDY_MGT_001-018,020-023/2018-04-04-06-03-26/CoMarch_Web_EN_FAIL.html
PYM_SMRT_SMDY_MGT_024|http://10.249.240.68/UAT/Payment-Payroll-Smart-SameDay-Management/CoMarch_Web_EN/PYM_SMRT_SMDY_MGT_019,024-032/2018-04-05-06-08-39/CoMarch_Web_EN_FAIL.html
PYM_SMRT_SMDY_MGT_025|http://10.249.240.68/UAT/Payment-Payroll-Smart-SameDay-Management/CoMarch_Web_EN/PYM_SMRT_SMDY_MGT_019,024-032/2018-04-05-06-08-39/CoMarch_Web_EN_FAIL.html
PYM_SMRT_SMDY_MGT_026|http://10.249.240.68/UAT/Payment-Payroll-Smart-SameDay-Management/CoMarch_Web_EN/PYM_SMRT_SMDY_MGT_026/2018-04-09-06-07-26/CoMarch_Web_EN_FAIL.html
PYM_SMRT_SMDY_MGT_027|http://10.249.240.68/UAT/Payment-Payroll-Smart-SameDay-Management/CoMarch_Web_EN/PYM_SMRT_SMDY_MGT_019,024-032/2018-04-05-06-08-39/CoMarch_Web_EN_FAIL.html
PYM_SMRT_SMDY_MGT_028|http://10.249.240.68/UAT/Payment-Payroll-Smart-SameDay-Management/CoMarch_Web_EN/PYM_SMRT_SMDY_MGT_019,024-032/2018-04-05-06-08-39/CoMarch_Web_EN_FAIL.html
PYM_SMRT_SMDY_MGT_029|http://10.249.240.68/UAT/Payment-Payroll-Smart-SameDay-Management/CoMarch_Web_EN/PYM_SMRT_SMDY_MGT_019,024-032/2018-04-05-06-08-39/CoMarch_Web_EN_FAIL.html
PYM_SMRT_SMDY_MGT_030|http://10.249.240.68/UAT/Payment-Payroll-Smart-SameDay-Management/CoMarch_Web_EN/PYM_SMRT_SMDY_MGT_019,024-032/2018-04-05-06-08-39/CoMarch_Web_EN_FAIL.html
PYM_SMRT_SMDY_MGT_031|http://10.249.240.68/UAT/Payment-Payroll-Smart-SameDay-Management/CoMarch_Web_EN/PYM_SMRT_SMDY_MGT_019,024-032/2018-04-05-06-08-39/CoMarch_Web_EN_FAIL.html
PYM_SMRT_SMDY_MGT_032|http://10.249.240.68/UAT/Payment-Payroll-Smart-SameDay-Management/CoMarch_Web_EN/PYM_SMRT_SMDY_MGT_019,024-032/2018-04-05-06-08-39/CoMarch_Web_EN_FAIL.html
