PYM_DRCDT_TC001|http://10.249.240.68/UAT/Payment-DirectCredit/CoMarch_Web_TH/PYM_DRCDT_TC001-005/2018-03-29-15-33-07/CoMarch_Web_TH_FAIL.html
PYM_DRCDT_TC002|http://10.249.240.68/UAT/Payment-DirectCredit/CoMarch_Web_TH/PYM_DRCDT_TC001-005/2018-03-29-15-33-07/CoMarch_Web_TH_FAIL.html
PYM_DRCDT_TC003|http://10.249.240.68/UAT/Payment-DirectCredit/CoMarch_Web_TH/PYM_DRCDT_TC001-005/2018-03-29-15-33-07/CoMarch_Web_TH_FAIL.html
PYM_DRCDT_TC004|http://10.249.240.68/UAT/Payment-DirectCredit/CoMarch_Web_TH/PYM_DRCDT_TC001-005/2018-03-29-15-33-07/CoMarch_Web_TH_FAIL.html
PYM_DRCDT_TC005|http://10.249.240.68/UAT/Payment-DirectCredit/CoMarch_Web_TH/PYM_DRCDT_TC001-005/2018-03-29-15-33-07/CoMarch_Web_TH_FAIL.html
PYM_DRCDT_TC006|http://10.249.240.68/UAT/Payment-DirectCredit/CoMarch_Web_TH/PYM_DRCDT_TC006/2018-03-29-16-49-54/CoMarch_Web_TH_FAIL.html
PYM_DRCDT_TC007|http://10.249.240.68/UAT/Payment-DirectCredit/CoMarch_Web_TH/PYM_DRCDT_TC007-011,013-017,019-023/2018-03-30-06-02-39/CoMarch_Web_TH_FAIL.html
PYM_DRCDT_TC008|http://10.249.240.68/UAT/Payment-DirectCredit/CoMarch_Web_TH/PYM_DRCDT_TC007-011,013-017,019-023/2018-03-30-06-02-39/CoMarch_Web_TH_FAIL.html
PYM_DRCDT_TC009|http://10.249.240.68/UAT/Payment-DirectCredit/CoMarch_Web_TH/PYM_DRCDT_TC007-011,013-017,019-023/2018-03-30-06-02-39/CoMarch_Web_TH_FAIL.html
PYM_DRCDT_TC010|http://10.249.240.68/UAT/Payment-DirectCredit/CoMarch_Web_TH/PYM_DRCDT_TC007-011,013-017,019-023/2018-03-30-06-02-39/CoMarch_Web_TH_FAIL.html
PYM_DRCDT_TC011|http://10.249.240.68/UAT/Payment-DirectCredit/CoMarch_Web_TH/PYM_DRCDT_TC007-011,013-017,019-023/2018-03-30-06-02-39/CoMarch_Web_TH_FAIL.html
PYM_DRCDT_TC012|http://10.249.240.68/UAT/Payment-DirectCredit/CoMarch_Web_TH/PYM_DRCDT_TC012,018,024-026,028-032,034-038,042-044,055-069,071-072,076/2018-03-30-10-32-40/CoMarch_Web_TH_FAIL.html
PYM_DRCDT_TC013|http://10.249.240.68/UAT/Payment-DirectCredit/CoMarch_Web_TH/PYM_DRCDT_TC007-011,013-017,019-023/2018-03-30-06-02-39/CoMarch_Web_TH_FAIL.html
PYM_DRCDT_TC014|http://10.249.240.68/UAT/Payment-DirectCredit/CoMarch_Web_TH/PYM_DRCDT_TC007-011,013-017,019-023/2018-03-30-06-02-39/CoMarch_Web_TH_FAIL.html
PYM_DRCDT_TC015|http://10.249.240.68/UAT/Payment-DirectCredit/CoMarch_Web_TH/PYM_DRCDT_TC007-011,013-017,019-023/2018-03-30-06-02-39/CoMarch_Web_TH_FAIL.html
PYM_DRCDT_TC016|http://10.249.240.68/UAT/Payment-DirectCredit/CoMarch_Web_TH/PYM_DRCDT_TC007-011,013-017,019-023/2018-03-30-06-02-39/CoMarch_Web_TH_FAIL.html
PYM_DRCDT_TC017|http://10.249.240.68/UAT/Payment-DirectCredit/CoMarch_Web_TH/PYM_DRCDT_TC007-011,013-017,019-023/2018-03-30-06-02-39/CoMarch_Web_TH_FAIL.html
PYM_DRCDT_TC018|http://10.249.240.68/UAT/Payment-DirectCredit/CoMarch_Web_TH/PYM_DRCDT_TC012,018,024-026,028-032,034-038,042-044,055-069,071-072,076/2018-03-30-10-32-40/CoMarch_Web_TH_FAIL.html
PYM_DRCDT_TC019|http://10.249.240.68/UAT/Payment-DirectCredit/CoMarch_Web_TH/PYM_DRCDT_TC007-011,013-017,019-023/2018-03-30-06-02-39/CoMarch_Web_TH_FAIL.html
PYM_DRCDT_TC020|http://10.249.240.68/UAT/Payment-DirectCredit/CoMarch_Web_TH/PYM_DRCDT_TC007-011,013-017,019-023/2018-03-30-06-02-39/CoMarch_Web_TH_FAIL.html
PYM_DRCDT_TC021|http://10.249.240.68/UAT/Payment-DirectCredit/CoMarch_Web_TH/PYM_DRCDT_TC007-011,013-017,019-023/2018-03-30-06-02-39/CoMarch_Web_TH_FAIL.html
PYM_DRCDT_TC022|http://10.249.240.68/UAT/Payment-DirectCredit/CoMarch_Web_TH/PYM_DRCDT_TC007-011,013-017,019-023/2018-03-30-06-02-39/CoMarch_Web_TH_FAIL.html
PYM_DRCDT_TC023|http://10.249.240.68/UAT/Payment-DirectCredit/CoMarch_Web_TH/PYM_DRCDT_TC007-011,013-017,019-023/2018-03-30-06-02-39/CoMarch_Web_TH_FAIL.html
PYM_DRCDT_TC024|http://10.249.240.68/UAT/Payment-DirectCredit/CoMarch_Web_TH/PYM_DRCDT_TC012,018,024-026,028-032,034-038,042-044,055-069,071-072,076/2018-03-30-10-32-40/CoMarch_Web_TH_FAIL.html
PYM_DRCDT_TC025|http://10.249.240.68/UAT/Payment-DirectCredit/CoMarch_Web_TH/PYM_DRCDT_TC012,018,024-026,028-032,034-038,042-044,055-069,071-072,076/2018-03-30-10-32-40/CoMarch_Web_TH_FAIL.html
PYM_DRCDT_TC026|http://10.249.240.68/UAT/Payment-DirectCredit/CoMarch_Web_TH/PYM_DRCDT_TC012,018,024-026,028-032,034-038,042-044,055-069,071-072,076/2018-03-30-10-32-40/CoMarch_Web_TH_FAIL.html
PYM_DRCDT_TC027|http://10.249.240.68/UAT/Payment-DirectCredit/CoMarch_Web_TH/PYM_DRCDT_TC027/CoMarch_Web_TH_FAIL.html
PYM_DRCDT_TC028|http://10.249.240.68/UAT/Payment-DirectCredit/CoMarch_Web_TH/PYM_DRCDT_TC012,018,024-026,028-032,034-038,042-044,055-069,071-072,076/2018-03-30-10-32-40/CoMarch_Web_TH_FAIL.html
PYM_DRCDT_TC029|http://10.249.240.68/UAT/Payment-DirectCredit/CoMarch_Web_TH/PYM_DRCDT_TC012,018,024-026,028-032,034-038,042-044,055-069,071-072,076/2018-03-30-10-32-40/CoMarch_Web_TH_FAIL.html
PYM_DRCDT_TC030|http://10.249.240.68/UAT/Payment-DirectCredit/CoMarch_Web_TH/PYM_DRCDT_TC012,018,024-026,028-032,034-038,042-044,055-069,071-072,076/2018-03-30-10-32-40/CoMarch_Web_TH_FAIL.html
PYM_DRCDT_TC031|http://10.249.240.68/UAT/Payment-DirectCredit/CoMarch_Web_TH/PYM_DRCDT_TC012,018,024-026,028-032,034-038,042-044,055-069,071-072,076/2018-03-30-10-32-40/CoMarch_Web_TH_FAIL.html
PYM_DRCDT_TC032|http://10.249.240.68/UAT/Payment-DirectCredit/CoMarch_Web_TH/PYM_DRCDT_TC012,018,024-026,028-032,034-038,042-044,055-069,071-072,076/2018-03-30-10-32-40/CoMarch_Web_TH_FAIL.html
PYM_DRCDT_TC033|http://10.249.240.68/UAT/Payment-DirectCredit/CoMarch_Web_TH/PYM_DRCDT_TC033,039-041,054/2018-04-02-06-02-23/CoMarch_Web_TH_FAIL.html
PYM_DRCDT_TC034|http://10.249.240.68/UAT/Payment-DirectCredit/CoMarch_Web_TH/PYM_DRCDT_TC012,018,024-026,028-032,034-038,042-044,055-069,071-072,076/2018-03-30-10-32-40/CoMarch_Web_TH_FAIL.html
PYM_DRCDT_TC035|http://10.249.240.68/UAT/Payment-DirectCredit/CoMarch_Web_TH/PYM_DRCDT_TC035/2018-04-02-16-38-48/CoMarch_Web_TH.html
PYM_DRCDT_TC036|http://10.249.240.68/UAT/Payment-DirectCredit/CoMarch_Web_TH/PYM_DRCDT_TC012,018,024-026,028-032,034-038,042-044,055-069,071-072,076/2018-03-30-10-32-40/CoMarch_Web_TH_FAIL.html
PYM_DRCDT_TC037|http://10.249.240.68/UAT/Payment-DirectCredit/CoMarch_Web_TH/PYM_DRCDT_TC012,018,024-026,028-032,034-038,042-044,055-069,071-072,076/2018-03-30-10-32-40/CoMarch_Web_TH_FAIL.html
PYM_DRCDT_TC038|http://10.249.240.68/UAT/Payment-DirectCredit/CoMarch_Web_TH/PYM_DRCDT_TC012,018,024-026,028-032,034-038,042-044,055-069,071-072,076/2018-03-30-10-32-40/CoMarch_Web_TH_FAIL.html
PYM_DRCDT_TC039|http://10.249.240.68/UAT/Payment-DirectCredit/CoMarch_Web_TH/PYM_DRCDT_TC033,039-041,054/2018-04-02-06-02-23/CoMarch_Web_TH_FAIL.html
PYM_DRCDT_TC041|http://10.249.240.68/UAT/Payment-DirectCredit/CoMarch_Web_TH/PYM_DRCDT_TC033,039-041,054/2018-04-02-06-02-23/CoMarch_Web_TH_FAIL.html
PYM_DRCDT_TC042|http://10.249.240.68/UAT/Payment-DirectCredit/CoMarch_Web_TH/PYM_DRCDT_TC012,018,024-026,028-032,034-038,042-044,055-069,071-072,076/2018-03-30-10-32-40/CoMarch_Web_TH_FAIL.html
PYM_DRCDT_TC043|http://10.249.240.68/UAT/Payment-DirectCredit/CoMarch_Web_TH/PYM_DRCDT_TC043,044/CoMarch_Web_TH_PASS.html
PYM_DRCDT_TC044|http://10.249.240.68/UAT/Payment-DirectCredit/CoMarch_Web_TH/PYM_DRCDT_TC043,044/CoMarch_Web_TH_PASS.html
PYM_DRCDT_TC054|http://10.249.240.68/UAT/Payment-DirectCredit/CoMarch_Web_TH/PYM_DRCDT_TC033,039-041,054/2018-04-02-06-02-23/CoMarch_Web_TH_FAIL.html
PYM_DRCDT_TC055|http://10.249.240.68/UAT/Payment-DirectCredit/CoMarch_Web_TH/PYM_DRCDT_TC012,018,024-026,028-032,034-038,042-044,055-069,071-072,076/2018-03-30-10-32-40/CoMarch_Web_TH_FAIL.html
PYM_DRCDT_TC057|http://10.249.240.68/UAT/Payment-DirectCredit/CoMarch_Web_TH/PYM_DRCDT_TC012,018,024-026,028-032,034-038,042-044,055-069,071-072,076/2018-03-30-10-32-40/CoMarch_Web_TH_FAIL.html
PYM_DRCDT_TC059|http://10.249.240.68/UAT/Payment-DirectCredit/CoMarch_Web_TH/PYM_DRCDT_TC012,018,024-026,028-032,034-038,042-044,055-069,071-072,076/2018-03-30-10-32-40/CoMarch_Web_TH_FAIL.html
PYM_DRCDT_TC060|http://10.249.240.68/UAT/Payment-DirectCredit/CoMarch_Web_TH/PYM_DRCDT_TC012,018,024-026,028-032,034-038,042-044,055-069,071-072,076/2018-03-30-10-32-40/CoMarch_Web_TH_FAIL.html
PYM_DRCDT_TC061|http://10.249.240.68/UAT/Payment-DirectCredit/CoMarch_Web_TH/PYM_DRCDT_TC012,018,024-026,028-032,034-038,042-044,055-069,071-072,076/2018-03-30-10-32-40/CoMarch_Web_TH_FAIL.html
PYM_DRCDT_TC067|http://10.249.240.68/UAT/Payment-DirectCredit/CoMarch_Web_TH/PYM_DRCDT_TC012,018,024-026,028-032,034-038,042-044,055-069,071-072,076/2018-03-30-10-32-40/CoMarch_Web_TH_FAIL.html
PYM_DRCDT_TC068|http://10.249.240.68/UAT/Payment-DirectCredit/CoMarch_Web_TH/PYM_DRCDT_TC012,018,024-026,028-032,034-038,042-044,055-069,071-072,076/2018-03-30-10-32-40/CoMarch_Web_TH_FAIL.html
PYM_DRCDT_TC069|http://10.249.240.68/UAT/Payment-DirectCredit/CoMarch_Web_TH/PYM_DRCDT_TC012,018,024-026,028-032,034-038,042-044,055-069,071-072,076/2018-03-30-10-32-40/CoMarch_Web_TH_FAIL.html
PYM_DRCDT_TC070|http://10.249.240.68/UAT/Payment-DirectCredit/CoMarch_Web_TH/PYM_DRCDT_TC070/2018-04-02-11-07-24/CoMarch_Web_TH_FAIL.html
PYM_DRCDT_TC071|http://10.249.240.68/UAT/Payment-DirectCredit/CoMarch_Web_TH/PYM_DRCDT_TC012,018,024-026,028-032,034-038,042-044,055-069,071-072,076/2018-03-30-10-32-40/CoMarch_Web_TH_FAIL.html
PYM_DRCDT_TC072|http://10.249.240.68/UAT/Payment-DirectCredit/CoMarch_Web_TH/PYM_DRCDT_TC012,018,024-026,028-032,034-038,042-044,055-069,071-072,076/2018-03-30-10-32-40/CoMarch_Web_TH_FAIL.html
PYM_DRCDT_TC074|http://10.249.240.68/UAT/Payment-DirectCredit/CoMarch_Web_TH/PYM_DRCDT_TC074/2018-03-30-16-44-39/HTML/CoMarch_Web_TH.html#PYM_DRCDT_TC074_0
PYM_DRCDT_TC076|http://10.249.240.68/UAT/Payment-DirectCredit/CoMarch_Web_TH/PYM_DRCDT_TC012,018,024-026,028-032,034-038,042-044,055-069,071-072,076/2018-03-30-10-32-40/CoMarch_Web_TH_FAIL.html
